{
  "header": {
    "version": "6.0.0.dev0"
  },
  "init": {

    "component/hltv-live-ct-0-name/data": "com/hltv/live/CT/0/name",
    "component/hltv-live-ct-0-name/custom-style": "net/counter-strike/style/ct",
    "component/hltv-live-ct-0-name/style/display": "show",
    "component/hltv-live-ct-0-name/style/pos-16x9-x-b": "5",
    "component/hltv-live-ct-0-name/style/pos-16x9-x-e": "15",
    "component/hltv-live-ct-0-name/style/pos-16x9-y-b": "4",
    "component/hltv-live-ct-0-name/style/pos-16x9-y-e": "6",
    "component/hltv-live-ct-0-name/style/text-size": "2",
    "component/hltv-live-ct-0-name/style/text-align": "left",
    "component/hltv-live-ct-0-name/style/text-color": "black",
    "component/hltv-live-ct-0-name/style/text-style": "bold",
    "component/hltv-live-ct-0-hp/data": "com/hltv/live/CT/0/hp",
    "component/hltv-live-ct-0-hp/custom-style": "net/counter-strike/style/ct",
    "component/hltv-live-ct-0-hp/style/display": "show",
    "component/hltv-live-ct-0-hp/style/pos-16x9-x-b": "16",
    "component/hltv-live-ct-0-hp/style/pos-16x9-x-e": "19",
    "component/hltv-live-ct-0-hp/style/pos-16x9-y-b": "4",
    "component/hltv-live-ct-0-hp/style/pos-16x9-y-e": "6",
    "component/hltv-live-ct-0-hp/style/text-size": "2",
    "component/hltv-live-ct-0-hp/style/text-align": "center",
    "component/hltv-live-ct-0-hp/style/text-color": "black",
    "component/hltv-live-ct-0-hp/style/text-style": "bold",
    "component/hltv-live-ct-0-armor/data": "com/hltv/live/CT/0/armor",
    "component/hltv-live-ct-0-armor/custom-style": "net/counter-strike/style/ct",
    "component/hltv-live-ct-0-armor/style/display": "show",
    "component/hltv-live-ct-0-armor/style/pos-16x9-x-b": "19",
    "component/hltv-live-ct-0-armor/style/pos-16x9-x-e": "21",
    "component/hltv-live-ct-0-armor/style/pos-16x9-y-b": "4",
    "component/hltv-live-ct-0-armor/style/pos-16x9-y-e": "6",
    "component/hltv-live-ct-0-armor/style/text-size": "2",
    "component/hltv-live-ct-0-armor/style/text-align": "center",
    "component/hltv-live-ct-0-armor/style/text-color": "black",
    "component/hltv-live-ct-0-armor/style/text-style": "bold",

    "component/hltv-live-ct-0-weapon/data": "com/hltv/live/CT/0/primaryWeapon",
    "component/hltv-live-ct-0-weapon/mode": "hltv-csgo-icon",
    "component/hltv-live-ct-0-weapon/custom-style": "net/counter-strike/style/ct",
    "component/hltv-live-ct-0-weapon/style/display": "show",
    "component/hltv-live-ct-0-weapon/style/pos-16x9-x-b": "22",
    "component/hltv-live-ct-0-weapon/style/pos-16x9-x-e": "27",
    "component/hltv-live-ct-0-weapon/style/pos-16x9-y-b": "4",
    "component/hltv-live-ct-0-weapon/style/pos-16x9-y-e": "6",
    "component/hltv-live-ct-0-weapon/style/text-size": "2",
    "component/hltv-live-ct-0-weapon/style/text-align": "center",
    "component/hltv-live-ct-0-weapon/style/text-color": "black",
    "component/hltv-live-ct-0-weapon/style/text-style": "bold",

    "component/hltv-live-ct-0-money/data": "com/hltv/live/CT/0/money",
    "component/hltv-live-ct-0-money/mode": "raw",
    "component/hltv-live-ct-0-money/custom-style": "net/counter-strike/style/ct",
    "component/hltv-live-ct-0-money/style/display": "show",
    "component/hltv-live-ct-0-money/style/pos-16x9-x-b": "28",
    "component/hltv-live-ct-0-money/style/pos-16x9-x-e": "33",
    "component/hltv-live-ct-0-money/style/pos-16x9-y-b": "4",
    "component/hltv-live-ct-0-money/style/pos-16x9-y-e": "6",
    "component/hltv-live-ct-0-money/style/text-size": "2",
    "component/hltv-live-ct-0-money/style/text-align": "right",
    "component/hltv-live-ct-0-money/style/text-color": "black",
    "component/hltv-live-ct-0-money/style/text-style": "bold",

    "component/hltv-live-ct-0-kills/data": "com/hltv/live/CT/0/score",
    "component/hltv-live-ct-0-kills/custom-style": "net/counter-strike/style/ct",
    "component/hltv-live-ct-0-kills/style/display": "show",
    "component/hltv-live-ct-0-kills/style/pos-16x9-x-b": "34",
    "component/hltv-live-ct-0-kills/style/pos-16x9-x-e": "36",
    "component/hltv-live-ct-0-kills/style/pos-16x9-y-b": "4",
    "component/hltv-live-ct-0-kills/style/pos-16x9-y-e": "6",
    "component/hltv-live-ct-0-kills/style/text-size": "2",
    "component/hltv-live-ct-0-kills/style/text-align": "center",
    "component/hltv-live-ct-0-kills/style/text-color": "black",
    "component/hltv-live-ct-0-kills/style/text-style": "bold",
    "component/hltv-live-ct-0-assists/data": "com/hltv/live/CT/0/assists",
    "component/hltv-live-ct-0-assists/custom-style": "net/counter-strike/style/ct",
    "component/hltv-live-ct-0-assists/style/display": "show",
    "component/hltv-live-ct-0-assists/style/pos-16x9-x-b": "36",
    "component/hltv-live-ct-0-assists/style/pos-16x9-x-e": "38",
    "component/hltv-live-ct-0-assists/style/pos-16x9-y-b": "4",
    "component/hltv-live-ct-0-assists/style/pos-16x9-y-e": "6",
    "component/hltv-live-ct-0-assists/style/text-size": "2",
    "component/hltv-live-ct-0-assists/style/text-align": "center",
    "component/hltv-live-ct-0-assists/style/text-color": "black",
    "component/hltv-live-ct-0-assists/style/text-style": "bold",
    "component/hltv-live-ct-0-deaths/data": "com/hltv/live/CT/0/deaths",
    "component/hltv-live-ct-0-deaths/custom-style": "net/counter-strike/style/ct",
    "component/hltv-live-ct-0-deaths/style/display": "show",
    "component/hltv-live-ct-0-deaths/style/pos-16x9-x-b": "38",
    "component/hltv-live-ct-0-deaths/style/pos-16x9-x-e": "40",
    "component/hltv-live-ct-0-deaths/style/pos-16x9-y-b": "4",
    "component/hltv-live-ct-0-deaths/style/pos-16x9-y-e": "6",
    "component/hltv-live-ct-0-deaths/style/text-size": "2",
    "component/hltv-live-ct-0-deaths/style/text-align": "center",
    "component/hltv-live-ct-0-deaths/style/text-color": "black",
    "component/hltv-live-ct-0-deaths/style/text-style": "bold",

    "component/hltv-live-ct-0-adr/data": "com/hltv/live/CT/0/damagePrRound",
    "component/hltv-live-ct-0-adr/mode": "round",
    "component/hltv-live-ct-0-adr/custom-style": "net/counter-strike/style/ct",
    "component/hltv-live-ct-0-adr/style/display": "show",
    "component/hltv-live-ct-0-adr/style/pos-16x9-x-b": "41",
    "component/hltv-live-ct-0-adr/style/pos-16x9-x-e": "46",
    "component/hltv-live-ct-0-adr/style/pos-16x9-y-b": "4",
    "component/hltv-live-ct-0-adr/style/pos-16x9-y-e": "6",
    "component/hltv-live-ct-0-adr/style/text-size": "2",
    "component/hltv-live-ct-0-adr/style/text-align": "center",
    "component/hltv-live-ct-0-adr/style/text-color": "black",
    "component/hltv-live-ct-0-adr/style/text-style": "bold",
    
    "component/hltv-live-ct-1-name/data": "com/hltv/live/CT/1/name",
    "component/hltv-live-ct-1-name/custom-style": "net/counter-strike/style/ct",
    "component/hltv-live-ct-1-name/style/display": "show",
    "component/hltv-live-ct-1-name/style/pos-16x9-x-b": "5",
    "component/hltv-live-ct-1-name/style/pos-16x9-x-e": "15",
    "component/hltv-live-ct-1-name/style/pos-16x9-y-b": "6",
    "component/hltv-live-ct-1-name/style/pos-16x9-y-e": "8",
    "component/hltv-live-ct-1-name/style/text-size": "2",
    "component/hltv-live-ct-1-name/style/text-align": "left",
    "component/hltv-live-ct-1-name/style/text-color": "black",
    "component/hltv-live-ct-1-name/style/text-style": "bold",
    "component/hltv-live-ct-1-hp/data": "com/hltv/live/CT/1/hp",
    "component/hltv-live-ct-1-hp/custom-style": "net/counter-strike/style/ct",
    "component/hltv-live-ct-1-hp/style/display": "show",
    "component/hltv-live-ct-1-hp/style/pos-16x9-x-b": "16",
    "component/hltv-live-ct-1-hp/style/pos-16x9-x-e": "19",
    "component/hltv-live-ct-1-hp/style/pos-16x9-y-b": "6",
    "component/hltv-live-ct-1-hp/style/pos-16x9-y-e": "8",
    "component/hltv-live-ct-1-hp/style/text-size": "2",
    "component/hltv-live-ct-1-hp/style/text-align": "center",
    "component/hltv-live-ct-1-hp/style/text-color": "black",
    "component/hltv-live-ct-1-hp/style/text-style": "bold",
    "component/hltv-live-ct-1-armor/data": "com/hltv/live/CT/1/armor",
    "component/hltv-live-ct-1-armor/custom-style": "net/counter-strike/style/ct",
    "component/hltv-live-ct-1-armor/style/display": "show",
    "component/hltv-live-ct-1-armor/style/pos-16x9-x-b": "19",
    "component/hltv-live-ct-1-armor/style/pos-16x9-x-e": "21",
    "component/hltv-live-ct-1-armor/style/pos-16x9-y-b": "6",
    "component/hltv-live-ct-1-armor/style/pos-16x9-y-e": "8",
    "component/hltv-live-ct-1-armor/style/text-size": "2",
    "component/hltv-live-ct-1-armor/style/text-align": "center",
    "component/hltv-live-ct-1-armor/style/text-color": "black",
    "component/hltv-live-ct-1-armor/style/text-style": "bold",

    "component/hltv-live-ct-1-weapon/data": "com/hltv/live/CT/1/primaryWeapon",
    "component/hltv-live-ct-1-weapon/mode": "hltv-csgo-icon",
    "component/hltv-live-ct-1-weapon/custom-style": "net/counter-strike/style/ct",
    "component/hltv-live-ct-1-weapon/style/display": "show",
    "component/hltv-live-ct-1-weapon/style/pos-16x9-x-b": "22",
    "component/hltv-live-ct-1-weapon/style/pos-16x9-x-e": "27",
    "component/hltv-live-ct-1-weapon/style/pos-16x9-y-b": "6",
    "component/hltv-live-ct-1-weapon/style/pos-16x9-y-e": "8",
    "component/hltv-live-ct-1-weapon/style/text-size": "2",
    "component/hltv-live-ct-1-weapon/style/text-align": "center",
    "component/hltv-live-ct-1-weapon/style/text-color": "black",
    "component/hltv-live-ct-1-weapon/style/text-style": "bold",

    "component/hltv-live-ct-1-money/data": "com/hltv/live/CT/1/money",
    "component/hltv-live-ct-1-money/custom-style": "net/counter-strike/style/ct",
    "component/hltv-live-ct-1-money/style/display": "show",
    "component/hltv-live-ct-1-money/style/pos-16x9-x-b": "28",
    "component/hltv-live-ct-1-money/style/pos-16x9-x-e": "33",
    "component/hltv-live-ct-1-money/style/pos-16x9-y-b": "6",
    "component/hltv-live-ct-1-money/style/pos-16x9-y-e": "8",
    "component/hltv-live-ct-1-money/style/text-size": "2",
    "component/hltv-live-ct-1-money/style/text-align": "right",
    "component/hltv-live-ct-1-money/style/text-color": "black",
    "component/hltv-live-ct-1-money/style/text-style": "bold",

    "component/hltv-live-ct-1-kills/data": "com/hltv/live/CT/1/score",
    "component/hltv-live-ct-1-kills/custom-style": "net/counter-strike/style/ct",
    "component/hltv-live-ct-1-kills/style/display": "show",
    "component/hltv-live-ct-1-kills/style/pos-16x9-x-b": "34",
    "component/hltv-live-ct-1-kills/style/pos-16x9-x-e": "36",
    "component/hltv-live-ct-1-kills/style/pos-16x9-y-b": "6",
    "component/hltv-live-ct-1-kills/style/pos-16x9-y-e": "8",
    "component/hltv-live-ct-1-kills/style/text-size": "2",
    "component/hltv-live-ct-1-kills/style/text-align": "center",
    "component/hltv-live-ct-1-kills/style/text-color": "black",
    "component/hltv-live-ct-1-kills/style/text-style": "bold",
    "component/hltv-live-ct-1-assists/data": "com/hltv/live/CT/1/assists",
    "component/hltv-live-ct-1-assists/custom-style": "net/counter-strike/style/ct",
    "component/hltv-live-ct-1-assists/style/display": "show",
    "component/hltv-live-ct-1-assists/style/pos-16x9-x-b": "36",
    "component/hltv-live-ct-1-assists/style/pos-16x9-x-e": "38",
    "component/hltv-live-ct-1-assists/style/pos-16x9-y-b": "6",
    "component/hltv-live-ct-1-assists/style/pos-16x9-y-e": "8",
    "component/hltv-live-ct-1-assists/style/text-size": "2",
    "component/hltv-live-ct-1-assists/style/text-align": "center",
    "component/hltv-live-ct-1-assists/style/text-color": "black",
    "component/hltv-live-ct-1-assists/style/text-style": "bold",
    "component/hltv-live-ct-1-deaths/data": "com/hltv/live/CT/1/deaths",
    "component/hltv-live-ct-1-deaths/custom-style": "net/counter-strike/style/ct",
    "component/hltv-live-ct-1-deaths/style/display": "show",
    "component/hltv-live-ct-1-deaths/style/pos-16x9-x-b": "38",
    "component/hltv-live-ct-1-deaths/style/pos-16x9-x-e": "40",
    "component/hltv-live-ct-1-deaths/style/pos-16x9-y-b": "6",
    "component/hltv-live-ct-1-deaths/style/pos-16x9-y-e": "8",
    "component/hltv-live-ct-1-deaths/style/text-size": "2",
    "component/hltv-live-ct-1-deaths/style/text-align": "center",
    "component/hltv-live-ct-1-deaths/style/text-color": "black",
    "component/hltv-live-ct-1-deaths/style/text-style": "bold",

    "component/hltv-live-ct-1-adr/data": "com/hltv/live/CT/1/damagePrRound",
    "component/hltv-live-ct-1-adr/mode": "round",
    "component/hltv-live-ct-1-adr/custom-style": "net/counter-strike/style/ct",
    "component/hltv-live-ct-1-adr/style/display": "show",
    "component/hltv-live-ct-1-adr/style/pos-16x9-x-b": "41",
    "component/hltv-live-ct-1-adr/style/pos-16x9-x-e": "46",
    "component/hltv-live-ct-1-adr/style/pos-16x9-y-b": "6",
    "component/hltv-live-ct-1-adr/style/pos-16x9-y-e": "8",
    "component/hltv-live-ct-1-adr/style/text-size": "2",
    "component/hltv-live-ct-1-adr/style/text-align": "center",
    "component/hltv-live-ct-1-adr/style/text-color": "black",
    "component/hltv-live-ct-1-adr/style/text-style": "bold",
    
    "component/hltv-live-ct-2-name/data": "com/hltv/live/CT/2/name",
    "component/hltv-live-ct-2-name/custom-style": "net/counter-strike/style/ct",
    "component/hltv-live-ct-2-name/style/display": "show",
    "component/hltv-live-ct-2-name/style/pos-16x9-x-b": "5",
    "component/hltv-live-ct-2-name/style/pos-16x9-x-e": "15",
    "component/hltv-live-ct-2-name/style/pos-16x9-y-b": "8",
    "component/hltv-live-ct-2-name/style/pos-16x9-y-e": "10",
    "component/hltv-live-ct-2-name/style/text-size": "2",
    "component/hltv-live-ct-2-name/style/text-align": "left",
    "component/hltv-live-ct-2-name/style/text-color": "black",
    "component/hltv-live-ct-2-name/style/text-style": "bold",
    "component/hltv-live-ct-2-hp/data": "com/hltv/live/CT/2/hp",
    "component/hltv-live-ct-2-hp/custom-style": "net/counter-strike/style/ct",
    "component/hltv-live-ct-2-hp/style/display": "show",
    "component/hltv-live-ct-2-hp/style/pos-16x9-x-b": "16",
    "component/hltv-live-ct-2-hp/style/pos-16x9-x-e": "19",
    "component/hltv-live-ct-2-hp/style/pos-16x9-y-b": "8",
    "component/hltv-live-ct-2-hp/style/pos-16x9-y-e": "10",
    "component/hltv-live-ct-2-hp/style/text-size": "2",
    "component/hltv-live-ct-2-hp/style/text-align": "center",
    "component/hltv-live-ct-2-hp/style/text-color": "black",
    "component/hltv-live-ct-2-hp/style/text-style": "bold",
    "component/hltv-live-ct-2-armor/data": "com/hltv/live/CT/2/armor",
    "component/hltv-live-ct-2-armor/custom-style": "net/counter-strike/style/ct",
    "component/hltv-live-ct-2-armor/style/display": "show",
    "component/hltv-live-ct-2-armor/style/pos-16x9-x-b": "19",
    "component/hltv-live-ct-2-armor/style/pos-16x9-x-e": "21",
    "component/hltv-live-ct-2-armor/style/pos-16x9-y-b": "8",
    "component/hltv-live-ct-2-armor/style/pos-16x9-y-e": "10",
    "component/hltv-live-ct-2-armor/style/text-size": "2",
    "component/hltv-live-ct-2-armor/style/text-align": "center",
    "component/hltv-live-ct-2-armor/style/text-color": "black",
    "component/hltv-live-ct-2-armor/style/text-style": "bold",

    "component/hltv-live-ct-2-weapon/data": "com/hltv/live/CT/2/primaryWeapon",
    "component/hltv-live-ct-2-weapon/mode": "hltv-csgo-icon",
    "component/hltv-live-ct-2-weapon/custom-style": "net/counter-strike/style/ct",
    "component/hltv-live-ct-2-weapon/style/display": "show",
    "component/hltv-live-ct-2-weapon/style/pos-16x9-x-b": "22",
    "component/hltv-live-ct-2-weapon/style/pos-16x9-x-e": "27",
    "component/hltv-live-ct-2-weapon/style/pos-16x9-y-b": "8",
    "component/hltv-live-ct-2-weapon/style/pos-16x9-y-e": "10",
    "component/hltv-live-ct-2-weapon/style/text-size": "2",
    "component/hltv-live-ct-2-weapon/style/text-align": "center",
    "component/hltv-live-ct-2-weapon/style/text-color": "black",
    "component/hltv-live-ct-2-weapon/style/text-style": "bold",

    "component/hltv-live-ct-2-money/data": "com/hltv/live/CT/2/money",
    "component/hltv-live-ct-2-money/custom-style": "net/counter-strike/style/ct",
    "component/hltv-live-ct-2-money/style/display": "show",
    "component/hltv-live-ct-2-money/style/pos-16x9-x-b": "28",
    "component/hltv-live-ct-2-money/style/pos-16x9-x-e": "33",
    "component/hltv-live-ct-2-money/style/pos-16x9-y-b": "8",
    "component/hltv-live-ct-2-money/style/pos-16x9-y-e": "10",
    "component/hltv-live-ct-2-money/style/text-size": "2",
    "component/hltv-live-ct-2-money/style/text-align": "right",
    "component/hltv-live-ct-2-money/style/text-color": "black",
    "component/hltv-live-ct-2-money/style/text-style": "bold",

    "component/hltv-live-ct-2-kills/data": "com/hltv/live/CT/2/score",
    "component/hltv-live-ct-2-kills/custom-style": "net/counter-strike/style/ct",
    "component/hltv-live-ct-2-kills/style/display": "show",
    "component/hltv-live-ct-2-kills/style/pos-16x9-x-b": "34",
    "component/hltv-live-ct-2-kills/style/pos-16x9-x-e": "36",
    "component/hltv-live-ct-2-kills/style/pos-16x9-y-b": "8",
    "component/hltv-live-ct-2-kills/style/pos-16x9-y-e": "10",
    "component/hltv-live-ct-2-kills/style/text-size": "2",
    "component/hltv-live-ct-2-kills/style/text-align": "center",
    "component/hltv-live-ct-2-kills/style/text-color": "black",
    "component/hltv-live-ct-2-kills/style/text-style": "bold",
    "component/hltv-live-ct-2-assists/data": "com/hltv/live/CT/2/assists",
    "component/hltv-live-ct-2-assists/custom-style": "net/counter-strike/style/ct",
    "component/hltv-live-ct-2-assists/style/display": "show",
    "component/hltv-live-ct-2-assists/style/pos-16x9-x-b": "36",
    "component/hltv-live-ct-2-assists/style/pos-16x9-x-e": "38",
    "component/hltv-live-ct-2-assists/style/pos-16x9-y-b": "8",
    "component/hltv-live-ct-2-assists/style/pos-16x9-y-e": "10",
    "component/hltv-live-ct-2-assists/style/text-size": "2",
    "component/hltv-live-ct-2-assists/style/text-align": "center",
    "component/hltv-live-ct-2-assists/style/text-color": "black",
    "component/hltv-live-ct-2-assists/style/text-style": "bold",
    "component/hltv-live-ct-2-deaths/data": "com/hltv/live/CT/2/deaths",
    "component/hltv-live-ct-2-deaths/custom-style": "net/counter-strike/style/ct",
    "component/hltv-live-ct-2-deaths/style/display": "show",
    "component/hltv-live-ct-2-deaths/style/pos-16x9-x-b": "38",
    "component/hltv-live-ct-2-deaths/style/pos-16x9-x-e": "40",
    "component/hltv-live-ct-2-deaths/style/pos-16x9-y-b": "8",
    "component/hltv-live-ct-2-deaths/style/pos-16x9-y-e": "10",
    "component/hltv-live-ct-2-deaths/style/text-size": "2",
    "component/hltv-live-ct-2-deaths/style/text-align": "center",
    "component/hltv-live-ct-2-deaths/style/text-color": "black",
    "component/hltv-live-ct-2-deaths/style/text-style": "bold",

    "component/hltv-live-ct-2-adr/data": "com/hltv/live/CT/2/damagePrRound",
    "component/hltv-live-ct-2-adr/mode": "round",
    "component/hltv-live-ct-2-adr/custom-style": "net/counter-strike/style/ct",
    "component/hltv-live-ct-2-adr/style/display": "show",
    "component/hltv-live-ct-2-adr/style/pos-16x9-x-b": "41",
    "component/hltv-live-ct-2-adr/style/pos-16x9-x-e": "46",
    "component/hltv-live-ct-2-adr/style/pos-16x9-y-b": "8",
    "component/hltv-live-ct-2-adr/style/pos-16x9-y-e": "10",
    "component/hltv-live-ct-2-adr/style/text-size": "2",
    "component/hltv-live-ct-2-adr/style/text-align": "center",
    "component/hltv-live-ct-2-adr/style/text-color": "black",
    "component/hltv-live-ct-2-adr/style/text-style": "bold",
    
    "component/hltv-live-ct-3-name/data": "com/hltv/live/CT/3/name",
    "component/hltv-live-ct-3-name/custom-style": "net/counter-strike/style/ct",
    "component/hltv-live-ct-3-name/style/display": "show",
    "component/hltv-live-ct-3-name/style/pos-16x9-x-b": "5",
    "component/hltv-live-ct-3-name/style/pos-16x9-x-e": "15",
    "component/hltv-live-ct-3-name/style/pos-16x9-y-b": "10",
    "component/hltv-live-ct-3-name/style/pos-16x9-y-e": "12",
    "component/hltv-live-ct-3-name/style/text-size": "2",
    "component/hltv-live-ct-3-name/style/text-align": "left",
    "component/hltv-live-ct-3-name/style/text-color": "black",
    "component/hltv-live-ct-3-name/style/text-style": "bold",
    "component/hltv-live-ct-3-hp/data": "com/hltv/live/CT/3/hp",
    "component/hltv-live-ct-3-hp/custom-style": "net/counter-strike/style/ct",
    "component/hltv-live-ct-3-hp/style/display": "show",
    "component/hltv-live-ct-3-hp/style/pos-16x9-x-b": "16",
    "component/hltv-live-ct-3-hp/style/pos-16x9-x-e": "19",
    "component/hltv-live-ct-3-hp/style/pos-16x9-y-b": "10",
    "component/hltv-live-ct-3-hp/style/pos-16x9-y-e": "12",
    "component/hltv-live-ct-3-hp/style/text-size": "2",
    "component/hltv-live-ct-3-hp/style/text-align": "center",
    "component/hltv-live-ct-3-hp/style/text-color": "black",
    "component/hltv-live-ct-3-hp/style/text-style": "bold",
    "component/hltv-live-ct-3-armor/data": "com/hltv/live/CT/3/armor",
    "component/hltv-live-ct-3-armor/custom-style": "net/counter-strike/style/ct",
    "component/hltv-live-ct-3-armor/style/display": "show",
    "component/hltv-live-ct-3-armor/style/pos-16x9-x-b": "19",
    "component/hltv-live-ct-3-armor/style/pos-16x9-x-e": "21",
    "component/hltv-live-ct-3-armor/style/pos-16x9-y-b": "10",
    "component/hltv-live-ct-3-armor/style/pos-16x9-y-e": "12",
    "component/hltv-live-ct-3-armor/style/text-size": "2",
    "component/hltv-live-ct-3-armor/style/text-align": "center",
    "component/hltv-live-ct-3-armor/style/text-color": "black",
    "component/hltv-live-ct-3-armor/style/text-style": "bold",

    "component/hltv-live-ct-3-weapon/data": "com/hltv/live/CT/3/primaryWeapon",
    "component/hltv-live-ct-3-weapon/mode": "hltv-csgo-icon",
    "component/hltv-live-ct-3-weapon/custom-style": "net/counter-strike/style/ct",
    "component/hltv-live-ct-3-weapon/style/display": "show",
    "component/hltv-live-ct-3-weapon/style/pos-16x9-x-b": "22",
    "component/hltv-live-ct-3-weapon/style/pos-16x9-x-e": "27",
    "component/hltv-live-ct-3-weapon/style/pos-16x9-y-b": "10",
    "component/hltv-live-ct-3-weapon/style/pos-16x9-y-e": "12",
    "component/hltv-live-ct-3-weapon/style/text-size": "2",
    "component/hltv-live-ct-3-weapon/style/text-align": "center",
    "component/hltv-live-ct-3-weapon/style/text-color": "black",
    "component/hltv-live-ct-3-weapon/style/text-style": "bold",

    "component/hltv-live-ct-3-money/data": "com/hltv/live/CT/3/money",
    "component/hltv-live-ct-3-money/custom-style": "net/counter-strike/style/ct",
    "component/hltv-live-ct-3-money/style/display": "show",
    "component/hltv-live-ct-3-money/style/pos-16x9-x-b": "28",
    "component/hltv-live-ct-3-money/style/pos-16x9-x-e": "33",
    "component/hltv-live-ct-3-money/style/pos-16x9-y-b": "10",
    "component/hltv-live-ct-3-money/style/pos-16x9-y-e": "12",
    "component/hltv-live-ct-3-money/style/text-size": "2",
    "component/hltv-live-ct-3-money/style/text-align": "right",
    "component/hltv-live-ct-3-money/style/text-color": "black",
    "component/hltv-live-ct-3-money/style/text-style": "bold",

    "component/hltv-live-ct-3-kills/data": "com/hltv/live/CT/3/score",
    "component/hltv-live-ct-3-kills/custom-style": "net/counter-strike/style/ct",
    "component/hltv-live-ct-3-kills/style/display": "show",
    "component/hltv-live-ct-3-kills/style/pos-16x9-x-b": "34",
    "component/hltv-live-ct-3-kills/style/pos-16x9-x-e": "36",
    "component/hltv-live-ct-3-kills/style/pos-16x9-y-b": "10",
    "component/hltv-live-ct-3-kills/style/pos-16x9-y-e": "12",
    "component/hltv-live-ct-3-kills/style/text-size": "2",
    "component/hltv-live-ct-3-kills/style/text-align": "center",
    "component/hltv-live-ct-3-kills/style/text-color": "black",
    "component/hltv-live-ct-3-kills/style/text-style": "bold",
    "component/hltv-live-ct-3-assists/data": "com/hltv/live/CT/3/assists",
    "component/hltv-live-ct-3-assists/custom-style": "net/counter-strike/style/ct",
    "component/hltv-live-ct-3-assists/style/display": "show",
    "component/hltv-live-ct-3-assists/style/pos-16x9-x-b": "36",
    "component/hltv-live-ct-3-assists/style/pos-16x9-x-e": "38",
    "component/hltv-live-ct-3-assists/style/pos-16x9-y-b": "10",
    "component/hltv-live-ct-3-assists/style/pos-16x9-y-e": "12",
    "component/hltv-live-ct-3-assists/style/text-size": "2",
    "component/hltv-live-ct-3-assists/style/text-align": "center",
    "component/hltv-live-ct-3-assists/style/text-color": "black",
    "component/hltv-live-ct-3-assists/style/text-style": "bold",
    "component/hltv-live-ct-3-deaths/data": "com/hltv/live/CT/3/deaths",
    "component/hltv-live-ct-3-deaths/custom-style": "net/counter-strike/style/ct",
    "component/hltv-live-ct-3-deaths/style/display": "show",
    "component/hltv-live-ct-3-deaths/style/pos-16x9-x-b": "38",
    "component/hltv-live-ct-3-deaths/style/pos-16x9-x-e": "40",
    "component/hltv-live-ct-3-deaths/style/pos-16x9-y-b": "10",
    "component/hltv-live-ct-3-deaths/style/pos-16x9-y-e": "12",
    "component/hltv-live-ct-3-deaths/style/text-size": "2",
    "component/hltv-live-ct-3-deaths/style/text-align": "center",
    "component/hltv-live-ct-3-deaths/style/text-color": "black",
    "component/hltv-live-ct-3-deaths/style/text-style": "bold",

    "component/hltv-live-ct-3-adr/data": "com/hltv/live/CT/3/damagePrRound",
    "component/hltv-live-ct-3-adr/mode": "round",
    "component/hltv-live-ct-3-adr/custom-style": "net/counter-strike/style/ct",
    "component/hltv-live-ct-3-adr/style/display": "show",
    "component/hltv-live-ct-3-adr/style/pos-16x9-x-b": "41",
    "component/hltv-live-ct-3-adr/style/pos-16x9-x-e": "46",
    "component/hltv-live-ct-3-adr/style/pos-16x9-y-b": "10",
    "component/hltv-live-ct-3-adr/style/pos-16x9-y-e": "12",
    "component/hltv-live-ct-3-adr/style/text-size": "2",
    "component/hltv-live-ct-3-adr/style/text-align": "center",
    "component/hltv-live-ct-3-adr/style/text-color": "black",
    "component/hltv-live-ct-3-adr/style/text-style": "bold",
    
    "component/hltv-live-ct-4-name/data": "com/hltv/live/CT/4/name",
    "component/hltv-live-ct-4-name/custom-style": "net/counter-strike/style/ct",
    "component/hltv-live-ct-4-name/style/display": "show",
    "component/hltv-live-ct-4-name/style/pos-16x9-x-b": "5",
    "component/hltv-live-ct-4-name/style/pos-16x9-x-e": "15",
    "component/hltv-live-ct-4-name/style/pos-16x9-y-b": "12",
    "component/hltv-live-ct-4-name/style/pos-16x9-y-e": "14",
    "component/hltv-live-ct-4-name/style/text-size": "2",
    "component/hltv-live-ct-4-name/style/text-align": "left",
    "component/hltv-live-ct-4-name/style/text-color": "black",
    "component/hltv-live-ct-4-name/style/text-style": "bold",
    "component/hltv-live-ct-4-hp/data": "com/hltv/live/CT/4/hp",
    "component/hltv-live-ct-4-hp/custom-style": "net/counter-strike/style/ct",
    "component/hltv-live-ct-4-hp/style/display": "show",
    "component/hltv-live-ct-4-hp/style/pos-16x9-x-b": "16",
    "component/hltv-live-ct-4-hp/style/pos-16x9-x-e": "19",
    "component/hltv-live-ct-4-hp/style/pos-16x9-y-b": "12",
    "component/hltv-live-ct-4-hp/style/pos-16x9-y-e": "14",
    "component/hltv-live-ct-4-hp/style/text-size": "2",
    "component/hltv-live-ct-4-hp/style/text-align": "center",
    "component/hltv-live-ct-4-hp/style/text-color": "black",
    "component/hltv-live-ct-4-hp/style/text-style": "bold",
    "component/hltv-live-ct-4-armor/data": "com/hltv/live/CT/4/armor",
    "component/hltv-live-ct-4-armor/custom-style": "net/counter-strike/style/ct",
    "component/hltv-live-ct-4-armor/style/display": "show",
    "component/hltv-live-ct-4-armor/style/pos-16x9-x-b": "19",
    "component/hltv-live-ct-4-armor/style/pos-16x9-x-e": "21",
    "component/hltv-live-ct-4-armor/style/pos-16x9-y-b": "12",
    "component/hltv-live-ct-4-armor/style/pos-16x9-y-e": "14",
    "component/hltv-live-ct-4-armor/style/text-size": "2",
    "component/hltv-live-ct-4-armor/style/text-align": "center",
    "component/hltv-live-ct-4-armor/style/text-color": "black",
    "component/hltv-live-ct-4-armor/style/text-style": "bold",

    "component/hltv-live-ct-4-weapon/data": "com/hltv/live/CT/4/primaryWeapon",
    "component/hltv-live-ct-4-weapon/mode": "hltv-csgo-icon",
    "component/hltv-live-ct-4-weapon/custom-style": "net/counter-strike/style/ct",
    "component/hltv-live-ct-4-weapon/style/display": "show",
    "component/hltv-live-ct-4-weapon/style/pos-16x9-x-b": "22",
    "component/hltv-live-ct-4-weapon/style/pos-16x9-x-e": "27",
    "component/hltv-live-ct-4-weapon/style/pos-16x9-y-b": "12",
    "component/hltv-live-ct-4-weapon/style/pos-16x9-y-e": "14",
    "component/hltv-live-ct-4-weapon/style/text-size": "2",
    "component/hltv-live-ct-4-weapon/style/text-align": "center",
    "component/hltv-live-ct-4-weapon/style/text-color": "black",
    "component/hltv-live-ct-4-weapon/style/text-style": "bold",

    "component/hltv-live-ct-4-money/data": "com/hltv/live/CT/4/money",
    "component/hltv-live-ct-4-money/custom-style": "net/counter-strike/style/ct",
    "component/hltv-live-ct-4-money/style/display": "show",
    "component/hltv-live-ct-4-money/style/pos-16x9-x-b": "28",
    "component/hltv-live-ct-4-money/style/pos-16x9-x-e": "33",
    "component/hltv-live-ct-4-money/style/pos-16x9-y-b": "12",
    "component/hltv-live-ct-4-money/style/pos-16x9-y-e": "14",
    "component/hltv-live-ct-4-money/style/text-size": "2",
    "component/hltv-live-ct-4-money/style/text-align": "right",
    "component/hltv-live-ct-4-money/style/text-color": "black",
    "component/hltv-live-ct-4-money/style/text-style": "bold",

    "component/hltv-live-ct-4-kills/data": "com/hltv/live/CT/4/score",
    "component/hltv-live-ct-4-kills/custom-style": "net/counter-strike/style/ct",
    "component/hltv-live-ct-4-kills/style/display": "show",
    "component/hltv-live-ct-4-kills/style/pos-16x9-x-b": "34",
    "component/hltv-live-ct-4-kills/style/pos-16x9-x-e": "36",
    "component/hltv-live-ct-4-kills/style/pos-16x9-y-b": "12",
    "component/hltv-live-ct-4-kills/style/pos-16x9-y-e": "14",
    "component/hltv-live-ct-4-kills/style/text-size": "2",
    "component/hltv-live-ct-4-kills/style/text-align": "center",
    "component/hltv-live-ct-4-kills/style/text-color": "black",
    "component/hltv-live-ct-4-kills/style/text-style": "bold",
    "component/hltv-live-ct-4-assists/data": "com/hltv/live/CT/4/assists",
    "component/hltv-live-ct-4-assists/custom-style": "net/counter-strike/style/ct",
    "component/hltv-live-ct-4-assists/style/display": "show",
    "component/hltv-live-ct-4-assists/style/pos-16x9-x-b": "36",
    "component/hltv-live-ct-4-assists/style/pos-16x9-x-e": "38",
    "component/hltv-live-ct-4-assists/style/pos-16x9-y-b": "12",
    "component/hltv-live-ct-4-assists/style/pos-16x9-y-e": "14",
    "component/hltv-live-ct-4-assists/style/text-size": "2",
    "component/hltv-live-ct-4-assists/style/text-align": "center",
    "component/hltv-live-ct-4-assists/style/text-color": "black",
    "component/hltv-live-ct-4-assists/style/text-style": "bold",
    "component/hltv-live-ct-4-deaths/data": "com/hltv/live/CT/4/deaths",
    "component/hltv-live-ct-4-deaths/custom-style": "net/counter-strike/style/ct",
    "component/hltv-live-ct-4-deaths/style/display": "show",
    "component/hltv-live-ct-4-deaths/style/pos-16x9-x-b": "38",
    "component/hltv-live-ct-4-deaths/style/pos-16x9-x-e": "40",
    "component/hltv-live-ct-4-deaths/style/pos-16x9-y-b": "12",
    "component/hltv-live-ct-4-deaths/style/pos-16x9-y-e": "14",
    "component/hltv-live-ct-4-deaths/style/text-size": "2",
    "component/hltv-live-ct-4-deaths/style/text-align": "center",
    "component/hltv-live-ct-4-deaths/style/text-color": "black",
    "component/hltv-live-ct-4-deaths/style/text-style": "bold",

    "component/hltv-live-ct-4-adr/data": "com/hltv/live/CT/4/damagePrRound",
    "component/hltv-live-ct-4-adr/mode": "round",
    "component/hltv-live-ct-4-adr/custom-style": "net/counter-strike/style/ct",
    "component/hltv-live-ct-4-adr/style/display": "show",
    "component/hltv-live-ct-4-adr/style/pos-16x9-x-b": "41",
    "component/hltv-live-ct-4-adr/style/pos-16x9-x-e": "46",
    "component/hltv-live-ct-4-adr/style/pos-16x9-y-b": "12",
    "component/hltv-live-ct-4-adr/style/pos-16x9-y-e": "14",
    "component/hltv-live-ct-4-adr/style/text-size": "2",
    "component/hltv-live-ct-4-adr/style/text-align": "center",
    "component/hltv-live-ct-4-adr/style/text-color": "black",
    "component/hltv-live-ct-4-adr/style/text-style": "bold",
    
    "component/hltv-live-t-0-name/data": "com/hltv/live/TERRORIST/0/name",
    "component/hltv-live-t-0-name/custom-style": "net/counter-strike/style/t",
    "component/hltv-live-t-0-name/style/display": "show",
    "component/hltv-live-t-0-name/style/pos-16x9-x-b": "5",
    "component/hltv-live-t-0-name/style/pos-16x9-x-e": "15",
    "component/hltv-live-t-0-name/style/pos-16x9-y-b": "14",
    "component/hltv-live-t-0-name/style/pos-16x9-y-e": "16",
    "component/hltv-live-t-0-name/style/text-size": "2",
    "component/hltv-live-t-0-name/style/text-align": "left",
    "component/hltv-live-t-0-name/style/text-color": "black",
    "component/hltv-live-t-0-name/style/text-style": "bold",
    "component/hltv-live-t-0-hp/data": "com/hltv/live/TERRORIST/0/hp",
    "component/hltv-live-t-0-hp/custom-style": "net/counter-strike/style/t",
    "component/hltv-live-t-0-hp/style/display": "show",
    "component/hltv-live-t-0-hp/style/pos-16x9-x-b": "16",
    "component/hltv-live-t-0-hp/style/pos-16x9-x-e": "19",
    "component/hltv-live-t-0-hp/style/pos-16x9-y-b": "14",
    "component/hltv-live-t-0-hp/style/pos-16x9-y-e": "16",
    "component/hltv-live-t-0-hp/style/text-size": "2",
    "component/hltv-live-t-0-hp/style/text-align": "center",
    "component/hltv-live-t-0-hp/style/text-color": "black",
    "component/hltv-live-t-0-hp/style/text-style": "bold",
    "component/hltv-live-t-0-armor/data": "com/hltv/live/TERRORIST/0/armor",
    "component/hltv-live-t-0-armor/custom-style": "net/counter-strike/style/t",
    "component/hltv-live-t-0-armor/style/display": "show",
    "component/hltv-live-t-0-armor/style/pos-16x9-x-b": "19",
    "component/hltv-live-t-0-armor/style/pos-16x9-x-e": "21",
    "component/hltv-live-t-0-armor/style/pos-16x9-y-b": "14",
    "component/hltv-live-t-0-armor/style/pos-16x9-y-e": "16",
    "component/hltv-live-t-0-armor/style/text-size": "2",
    "component/hltv-live-t-0-armor/style/text-align": "center",
    "component/hltv-live-t-0-armor/style/text-color": "black",
    "component/hltv-live-t-0-armor/style/text-style": "bold",

    "component/hltv-live-t-0-weapon/data": "com/hltv/live/TERRORIST/0/primaryWeapon",
    "component/hltv-live-t-0-weapon/mode": "hltv-csgo-icon",
    "component/hltv-live-t-0-weapon/custom-style": "net/counter-strike/style/t",
    "component/hltv-live-t-0-weapon/style/display": "show",
    "component/hltv-live-t-0-weapon/style/pos-16x9-x-b": "22",
    "component/hltv-live-t-0-weapon/style/pos-16x9-x-e": "27",
    "component/hltv-live-t-0-weapon/style/pos-16x9-y-b": "14",
    "component/hltv-live-t-0-weapon/style/pos-16x9-y-e": "16",
    "component/hltv-live-t-0-weapon/style/text-size": "2",
    "component/hltv-live-t-0-weapon/style/text-align": "center",
    "component/hltv-live-t-0-weapon/style/text-color": "black",
    "component/hltv-live-t-0-weapon/style/text-style": "bold",

    "component/hltv-live-t-0-money/data": "com/hltv/live/TERRORIST/0/money",
    "component/hltv-live-t-0-money/custom-style": "net/counter-strike/style/t",
    "component/hltv-live-t-0-money/style/display": "show",
    "component/hltv-live-t-0-money/style/pos-16x9-x-b": "28",
    "component/hltv-live-t-0-money/style/pos-16x9-x-e": "33",
    "component/hltv-live-t-0-money/style/pos-16x9-y-b": "14",
    "component/hltv-live-t-0-money/style/pos-16x9-y-e": "16",
    "component/hltv-live-t-0-money/style/text-size": "2",
    "component/hltv-live-t-0-money/style/text-align": "right",
    "component/hltv-live-t-0-money/style/text-color": "black",
    "component/hltv-live-t-0-money/style/text-style": "bold",

    "component/hltv-live-t-0-kills/data": "com/hltv/live/TERRORIST/0/score",
    "component/hltv-live-t-0-kills/custom-style": "net/counter-strike/style/t",
    "component/hltv-live-t-0-kills/style/display": "show",
    "component/hltv-live-t-0-kills/style/pos-16x9-x-b": "34",
    "component/hltv-live-t-0-kills/style/pos-16x9-x-e": "36",
    "component/hltv-live-t-0-kills/style/pos-16x9-y-b": "14",
    "component/hltv-live-t-0-kills/style/pos-16x9-y-e": "16",
    "component/hltv-live-t-0-kills/style/text-size": "2",
    "component/hltv-live-t-0-kills/style/text-align": "center",
    "component/hltv-live-t-0-kills/style/text-color": "black",
    "component/hltv-live-t-0-kills/style/text-style": "bold",
    "component/hltv-live-t-0-assists/data": "com/hltv/live/TERRORIST/0/assists",
    "component/hltv-live-t-0-assists/custom-style": "net/counter-strike/style/t",
    "component/hltv-live-t-0-assists/style/display": "show",
    "component/hltv-live-t-0-assists/style/pos-16x9-x-b": "36",
    "component/hltv-live-t-0-assists/style/pos-16x9-x-e": "38",
    "component/hltv-live-t-0-assists/style/pos-16x9-y-b": "14",
    "component/hltv-live-t-0-assists/style/pos-16x9-y-e": "16",
    "component/hltv-live-t-0-assists/style/text-size": "2",
    "component/hltv-live-t-0-assists/style/text-align": "center",
    "component/hltv-live-t-0-assists/style/text-color": "black",
    "component/hltv-live-t-0-assists/style/text-style": "bold",
    "component/hltv-live-t-0-deaths/data": "com/hltv/live/TERRORIST/0/deaths",
    "component/hltv-live-t-0-deaths/custom-style": "net/counter-strike/style/t",
    "component/hltv-live-t-0-deaths/style/display": "show",
    "component/hltv-live-t-0-deaths/style/pos-16x9-x-b": "38",
    "component/hltv-live-t-0-deaths/style/pos-16x9-x-e": "40",
    "component/hltv-live-t-0-deaths/style/pos-16x9-y-b": "14",
    "component/hltv-live-t-0-deaths/style/pos-16x9-y-e": "16",
    "component/hltv-live-t-0-deaths/style/text-size": "2",
    "component/hltv-live-t-0-deaths/style/text-align": "center",
    "component/hltv-live-t-0-deaths/style/text-color": "black",
    "component/hltv-live-t-0-deaths/style/text-style": "bold",

    "component/hltv-live-t-0-adr/data": "com/hltv/live/TERRORIST/0/damagePrRound",
    "component/hltv-live-t-0-adr/mode": "round",
    "component/hltv-live-t-0-adr/custom-style": "net/counter-strike/style/t",
    "component/hltv-live-t-0-adr/style/display": "show",
    "component/hltv-live-t-0-adr/style/pos-16x9-x-b": "41",
    "component/hltv-live-t-0-adr/style/pos-16x9-x-e": "46",
    "component/hltv-live-t-0-adr/style/pos-16x9-y-b": "14",
    "component/hltv-live-t-0-adr/style/pos-16x9-y-e": "16",
    "component/hltv-live-t-0-adr/style/text-size": "2",
    "component/hltv-live-t-0-adr/style/text-align": "center",
    "component/hltv-live-t-0-adr/style/text-color": "black",
    "component/hltv-live-t-0-adr/style/text-style": "bold",
    
    "component/hltv-live-t-1-name/data": "com/hltv/live/TERRORIST/1/name",
    "component/hltv-live-t-1-name/custom-style": "net/counter-strike/style/t",
    "component/hltv-live-t-1-name/style/display": "show",
    "component/hltv-live-t-1-name/style/pos-16x9-x-b": "5",
    "component/hltv-live-t-1-name/style/pos-16x9-x-e": "15",
    "component/hltv-live-t-1-name/style/pos-16x9-y-b": "16",
    "component/hltv-live-t-1-name/style/pos-16x9-y-e": "18",
    "component/hltv-live-t-1-name/style/text-size": "2",
    "component/hltv-live-t-1-name/style/text-align": "left",
    "component/hltv-live-t-1-name/style/text-color": "black",
    "component/hltv-live-t-1-name/style/text-style": "bold",
    "component/hltv-live-t-1-hp/data": "com/hltv/live/TERRORIST/1/hp",
    "component/hltv-live-t-1-hp/custom-style": "net/counter-strike/style/t",
    "component/hltv-live-t-1-hp/style/display": "show",
    "component/hltv-live-t-1-hp/style/pos-16x9-x-b": "16",
    "component/hltv-live-t-1-hp/style/pos-16x9-x-e": "19",
    "component/hltv-live-t-1-hp/style/pos-16x9-y-b": "16",
    "component/hltv-live-t-1-hp/style/pos-16x9-y-e": "18",
    "component/hltv-live-t-1-hp/style/text-size": "2",
    "component/hltv-live-t-1-hp/style/text-align": "center",
    "component/hltv-live-t-1-hp/style/text-color": "black",
    "component/hltv-live-t-1-hp/style/text-style": "bold",
    "component/hltv-live-t-1-armor/data": "com/hltv/live/TERRORIST/1/armor",
    "component/hltv-live-t-1-armor/custom-style": "net/counter-strike/style/t",
    "component/hltv-live-t-1-armor/style/display": "show",
    "component/hltv-live-t-1-armor/style/pos-16x9-x-b": "19",
    "component/hltv-live-t-1-armor/style/pos-16x9-x-e": "21",
    "component/hltv-live-t-1-armor/style/pos-16x9-y-b": "16",
    "component/hltv-live-t-1-armor/style/pos-16x9-y-e": "18",
    "component/hltv-live-t-1-armor/style/text-size": "2",
    "component/hltv-live-t-1-armor/style/text-align": "center",
    "component/hltv-live-t-1-armor/style/text-color": "black",
    "component/hltv-live-t-1-armor/style/text-style": "bold",

    "component/hltv-live-t-1-weapon/data": "com/hltv/live/TERRORIST/1/primaryWeapon",
    "component/hltv-live-t-1-weapon/mode": "hltv-csgo-icon",
    "component/hltv-live-t-1-weapon/custom-style": "net/counter-strike/style/t",
    "component/hltv-live-t-1-weapon/style/display": "show",
    "component/hltv-live-t-1-weapon/style/pos-16x9-x-b": "22",
    "component/hltv-live-t-1-weapon/style/pos-16x9-x-e": "27",
    "component/hltv-live-t-1-weapon/style/pos-16x9-y-b": "16",
    "component/hltv-live-t-1-weapon/style/pos-16x9-y-e": "18",
    "component/hltv-live-t-1-weapon/style/text-size": "2",
    "component/hltv-live-t-1-weapon/style/text-align": "center",
    "component/hltv-live-t-1-weapon/style/text-color": "black",
    "component/hltv-live-t-1-weapon/style/text-style": "bold",

    "component/hltv-live-t-1-money/data": "com/hltv/live/TERRORIST/1/money",
    "component/hltv-live-t-1-money/custom-style": "net/counter-strike/style/t",
    "component/hltv-live-t-1-money/style/display": "show",
    "component/hltv-live-t-1-money/style/pos-16x9-x-b": "28",
    "component/hltv-live-t-1-money/style/pos-16x9-x-e": "33",
    "component/hltv-live-t-1-money/style/pos-16x9-y-b": "16",
    "component/hltv-live-t-1-money/style/pos-16x9-y-e": "18",
    "component/hltv-live-t-1-money/style/text-size": "2",
    "component/hltv-live-t-1-money/style/text-align": "right",
    "component/hltv-live-t-1-money/style/text-color": "black",
    "component/hltv-live-t-1-money/style/text-style": "bold",

    "component/hltv-live-t-1-kills/data": "com/hltv/live/TERRORIST/1/score",
    "component/hltv-live-t-1-kills/custom-style": "net/counter-strike/style/t",
    "component/hltv-live-t-1-kills/style/display": "show",
    "component/hltv-live-t-1-kills/style/pos-16x9-x-b": "34",
    "component/hltv-live-t-1-kills/style/pos-16x9-x-e": "36",
    "component/hltv-live-t-1-kills/style/pos-16x9-y-b": "16",
    "component/hltv-live-t-1-kills/style/pos-16x9-y-e": "18",
    "component/hltv-live-t-1-kills/style/text-size": "2",
    "component/hltv-live-t-1-kills/style/text-align": "center",
    "component/hltv-live-t-1-kills/style/text-color": "black",
    "component/hltv-live-t-1-kills/style/text-style": "bold",
    "component/hltv-live-t-1-assists/data": "com/hltv/live/TERRORIST/1/assists",
    "component/hltv-live-t-1-assists/custom-style": "net/counter-strike/style/t",
    "component/hltv-live-t-1-assists/style/display": "show",
    "component/hltv-live-t-1-assists/style/pos-16x9-x-b": "36",
    "component/hltv-live-t-1-assists/style/pos-16x9-x-e": "38",
    "component/hltv-live-t-1-assists/style/pos-16x9-y-b": "16",
    "component/hltv-live-t-1-assists/style/pos-16x9-y-e": "18",
    "component/hltv-live-t-1-assists/style/text-size": "2",
    "component/hltv-live-t-1-assists/style/text-align": "center",
    "component/hltv-live-t-1-assists/style/text-color": "black",
    "component/hltv-live-t-1-assists/style/text-style": "bold",
    "component/hltv-live-t-1-deaths/data": "com/hltv/live/TERRORIST/1/deaths",
    "component/hltv-live-t-1-deaths/custom-style": "net/counter-strike/style/t",
    "component/hltv-live-t-1-deaths/style/display": "show",
    "component/hltv-live-t-1-deaths/style/pos-16x9-x-b": "38",
    "component/hltv-live-t-1-deaths/style/pos-16x9-x-e": "40",
    "component/hltv-live-t-1-deaths/style/pos-16x9-y-b": "16",
    "component/hltv-live-t-1-deaths/style/pos-16x9-y-e": "18",
    "component/hltv-live-t-1-deaths/style/text-size": "2",
    "component/hltv-live-t-1-deaths/style/text-align": "center",
    "component/hltv-live-t-1-deaths/style/text-color": "black",
    "component/hltv-live-t-1-deaths/style/text-style": "bold",

    "component/hltv-live-t-1-adr/data": "com/hltv/live/TERRORIST/1/damagePrRound",
    "component/hltv-live-t-1-adr/mode": "round",
    "component/hltv-live-t-1-adr/custom-style": "net/counter-strike/style/t",
    "component/hltv-live-t-1-adr/style/display": "show",
    "component/hltv-live-t-1-adr/style/pos-16x9-x-b": "41",
    "component/hltv-live-t-1-adr/style/pos-16x9-x-e": "46",
    "component/hltv-live-t-1-adr/style/pos-16x9-y-b": "16",
    "component/hltv-live-t-1-adr/style/pos-16x9-y-e": "18",
    "component/hltv-live-t-1-adr/style/text-size": "2",
    "component/hltv-live-t-1-adr/style/text-align": "center",
    "component/hltv-live-t-1-adr/style/text-color": "black",
    "component/hltv-live-t-1-adr/style/text-style": "bold",
    
    "component/hltv-live-t-2-name/data": "com/hltv/live/TERRORIST/2/name",
    "component/hltv-live-t-2-name/custom-style": "net/counter-strike/style/t",
    "component/hltv-live-t-2-name/style/display": "show",
    "component/hltv-live-t-2-name/style/pos-16x9-x-b": "5",
    "component/hltv-live-t-2-name/style/pos-16x9-x-e": "15",
    "component/hltv-live-t-2-name/style/pos-16x9-y-b": "18",
    "component/hltv-live-t-2-name/style/pos-16x9-y-e": "20",
    "component/hltv-live-t-2-name/style/text-size": "2",
    "component/hltv-live-t-2-name/style/text-align": "left",
    "component/hltv-live-t-2-name/style/text-color": "black",
    "component/hltv-live-t-2-name/style/text-style": "bold",
    "component/hltv-live-t-2-hp/data": "com/hltv/live/TERRORIST/2/hp",
    "component/hltv-live-t-2-hp/custom-style": "net/counter-strike/style/t",
    "component/hltv-live-t-2-hp/style/display": "show",
    "component/hltv-live-t-2-hp/style/pos-16x9-x-b": "16",
    "component/hltv-live-t-2-hp/style/pos-16x9-x-e": "19",
    "component/hltv-live-t-2-hp/style/pos-16x9-y-b": "18",
    "component/hltv-live-t-2-hp/style/pos-16x9-y-e": "20",
    "component/hltv-live-t-2-hp/style/text-size": "2",
    "component/hltv-live-t-2-hp/style/text-align": "center",
    "component/hltv-live-t-2-hp/style/text-color": "black",
    "component/hltv-live-t-2-hp/style/text-style": "bold",
    "component/hltv-live-t-2-armor/data": "com/hltv/live/TERRORIST/2/armor",
    "component/hltv-live-t-2-armor/custom-style": "net/counter-strike/style/t",
    "component/hltv-live-t-2-armor/style/display": "show",
    "component/hltv-live-t-2-armor/style/pos-16x9-x-b": "19",
    "component/hltv-live-t-2-armor/style/pos-16x9-x-e": "21",
    "component/hltv-live-t-2-armor/style/pos-16x9-y-b": "18",
    "component/hltv-live-t-2-armor/style/pos-16x9-y-e": "20",
    "component/hltv-live-t-2-armor/style/text-size": "2",
    "component/hltv-live-t-2-armor/style/text-align": "center",
    "component/hltv-live-t-2-armor/style/text-color": "black",
    "component/hltv-live-t-2-armor/style/text-style": "bold",

    "component/hltv-live-t-2-weapon/data": "com/hltv/live/TERRORIST/2/primaryWeapon",
    "component/hltv-live-t-2-weapon/mode": "hltv-csgo-icon",
    "component/hltv-live-t-2-weapon/custom-style": "net/counter-strike/style/t",
    "component/hltv-live-t-2-weapon/style/display": "show",
    "component/hltv-live-t-2-weapon/style/pos-16x9-x-b": "22",
    "component/hltv-live-t-2-weapon/style/pos-16x9-x-e": "27",
    "component/hltv-live-t-2-weapon/style/pos-16x9-y-b": "18",
    "component/hltv-live-t-2-weapon/style/pos-16x9-y-e": "20",
    "component/hltv-live-t-2-weapon/style/text-size": "2",
    "component/hltv-live-t-2-weapon/style/text-align": "center",
    "component/hltv-live-t-2-weapon/style/text-color": "black",
    "component/hltv-live-t-2-weapon/style/text-style": "bold",

    "component/hltv-live-t-2-money/data": "com/hltv/live/TERRORIST/2/money",
    "component/hltv-live-t-2-money/custom-style": "net/counter-strike/style/t",
    "component/hltv-live-t-2-money/style/display": "show",
    "component/hltv-live-t-2-money/style/pos-16x9-x-b": "28",
    "component/hltv-live-t-2-money/style/pos-16x9-x-e": "33",
    "component/hltv-live-t-2-money/style/pos-16x9-y-b": "18",
    "component/hltv-live-t-2-money/style/pos-16x9-y-e": "20",
    "component/hltv-live-t-2-money/style/text-size": "2",
    "component/hltv-live-t-2-money/style/text-align": "right",
    "component/hltv-live-t-2-money/style/text-color": "black",
    "component/hltv-live-t-2-money/style/text-style": "bold",

    "component/hltv-live-t-2-kills/data": "com/hltv/live/TERRORIST/2/score",
    "component/hltv-live-t-2-kills/custom-style": "net/counter-strike/style/t",
    "component/hltv-live-t-2-kills/style/display": "show",
    "component/hltv-live-t-2-kills/style/pos-16x9-x-b": "34",
    "component/hltv-live-t-2-kills/style/pos-16x9-x-e": "36",
    "component/hltv-live-t-2-kills/style/pos-16x9-y-b": "18",
    "component/hltv-live-t-2-kills/style/pos-16x9-y-e": "20",
    "component/hltv-live-t-2-kills/style/text-size": "2",
    "component/hltv-live-t-2-kills/style/text-align": "center",
    "component/hltv-live-t-2-kills/style/text-color": "black",
    "component/hltv-live-t-2-kills/style/text-style": "bold",
    "component/hltv-live-t-2-assists/data": "com/hltv/live/TERRORIST/2/assists",
    "component/hltv-live-t-2-assists/custom-style": "net/counter-strike/style/t",
    "component/hltv-live-t-2-assists/style/display": "show",
    "component/hltv-live-t-2-assists/style/pos-16x9-x-b": "36",
    "component/hltv-live-t-2-assists/style/pos-16x9-x-e": "38",
    "component/hltv-live-t-2-assists/style/pos-16x9-y-b": "18",
    "component/hltv-live-t-2-assists/style/pos-16x9-y-e": "20",
    "component/hltv-live-t-2-assists/style/text-size": "2",
    "component/hltv-live-t-2-assists/style/text-align": "center",
    "component/hltv-live-t-2-assists/style/text-color": "black",
    "component/hltv-live-t-2-assists/style/text-style": "bold",
    "component/hltv-live-t-2-deaths/data": "com/hltv/live/TERRORIST/2/deaths",
    "component/hltv-live-t-2-deaths/custom-style": "net/counter-strike/style/t",
    "component/hltv-live-t-2-deaths/style/display": "show",
    "component/hltv-live-t-2-deaths/style/pos-16x9-x-b": "38",
    "component/hltv-live-t-2-deaths/style/pos-16x9-x-e": "40",
    "component/hltv-live-t-2-deaths/style/pos-16x9-y-b": "18",
    "component/hltv-live-t-2-deaths/style/pos-16x9-y-e": "20",
    "component/hltv-live-t-2-deaths/style/text-size": "2",
    "component/hltv-live-t-2-deaths/style/text-align": "center",
    "component/hltv-live-t-2-deaths/style/text-color": "black",
    "component/hltv-live-t-2-deaths/style/text-style": "bold",

    "component/hltv-live-t-2-adr/data": "com/hltv/live/TERRORIST/2/damagePrRound",
    "component/hltv-live-t-2-adr/mode": "round",
    "component/hltv-live-t-2-adr/custom-style": "net/counter-strike/style/t",
    "component/hltv-live-t-2-adr/style/display": "show",
    "component/hltv-live-t-2-adr/style/pos-16x9-x-b": "41",
    "component/hltv-live-t-2-adr/style/pos-16x9-x-e": "46",
    "component/hltv-live-t-2-adr/style/pos-16x9-y-b": "18",
    "component/hltv-live-t-2-adr/style/pos-16x9-y-e": "20",
    "component/hltv-live-t-2-adr/style/text-size": "2",
    "component/hltv-live-t-2-adr/style/text-align": "center",
    "component/hltv-live-t-2-adr/style/text-color": "black",
    "component/hltv-live-t-2-adr/style/text-style": "bold",
    
    "component/hltv-live-t-3-name/data": "com/hltv/live/TERRORIST/3/name",
    "component/hltv-live-t-3-name/custom-style": "net/counter-strike/style/t",
    "component/hltv-live-t-3-name/style/display": "show",
    "component/hltv-live-t-3-name/style/pos-16x9-x-b": "5",
    "component/hltv-live-t-3-name/style/pos-16x9-x-e": "15",
    "component/hltv-live-t-3-name/style/pos-16x9-y-b": "20",
    "component/hltv-live-t-3-name/style/pos-16x9-y-e": "22",
    "component/hltv-live-t-3-name/style/text-size": "2",
    "component/hltv-live-t-3-name/style/text-align": "left",
    "component/hltv-live-t-3-name/style/text-color": "black",
    "component/hltv-live-t-3-name/style/text-style": "bold",
    "component/hltv-live-t-3-hp/data": "com/hltv/live/TERRORIST/3/hp",
    "component/hltv-live-t-3-hp/custom-style": "net/counter-strike/style/t",
    "component/hltv-live-t-3-hp/style/display": "show",
    "component/hltv-live-t-3-hp/style/pos-16x9-x-b": "16",
    "component/hltv-live-t-3-hp/style/pos-16x9-x-e": "19",
    "component/hltv-live-t-3-hp/style/pos-16x9-y-b": "20",
    "component/hltv-live-t-3-hp/style/pos-16x9-y-e": "22",
    "component/hltv-live-t-3-hp/style/text-size": "2",
    "component/hltv-live-t-3-hp/style/text-align": "center",
    "component/hltv-live-t-3-hp/style/text-color": "black",
    "component/hltv-live-t-3-hp/style/text-style": "bold",
    "component/hltv-live-t-3-armor/data": "com/hltv/live/TERRORIST/3/armor",
    "component/hltv-live-t-3-armor/custom-style": "net/counter-strike/style/t",
    "component/hltv-live-t-3-armor/style/display": "show",
    "component/hltv-live-t-3-armor/style/pos-16x9-x-b": "19",
    "component/hltv-live-t-3-armor/style/pos-16x9-x-e": "21",
    "component/hltv-live-t-3-armor/style/pos-16x9-y-b": "20",
    "component/hltv-live-t-3-armor/style/pos-16x9-y-e": "22",
    "component/hltv-live-t-3-armor/style/text-size": "2",
    "component/hltv-live-t-3-armor/style/text-align": "center",
    "component/hltv-live-t-3-armor/style/text-color": "black",
    "component/hltv-live-t-3-armor/style/text-style": "bold",

    "component/hltv-live-t-3-weapon/data": "com/hltv/live/TERRORIST/3/primaryWeapon",
    "component/hltv-live-t-3-weapon/mode": "hltv-csgo-icon",
    "component/hltv-live-t-3-weapon/custom-style": "net/counter-strike/style/t",
    "component/hltv-live-t-3-weapon/style/display": "show",
    "component/hltv-live-t-3-weapon/style/pos-16x9-x-b": "22",
    "component/hltv-live-t-3-weapon/style/pos-16x9-x-e": "27",
    "component/hltv-live-t-3-weapon/style/pos-16x9-y-b": "20",
    "component/hltv-live-t-3-weapon/style/pos-16x9-y-e": "22",
    "component/hltv-live-t-3-weapon/style/text-size": "2",
    "component/hltv-live-t-3-weapon/style/text-align": "center",
    "component/hltv-live-t-3-weapon/style/text-color": "black",
    "component/hltv-live-t-3-weapon/style/text-style": "bold",

    "component/hltv-live-t-3-money/data": "com/hltv/live/TERRORIST/3/money",
    "component/hltv-live-t-3-money/custom-style": "net/counter-strike/style/t",
    "component/hltv-live-t-3-money/style/display": "show",
    "component/hltv-live-t-3-money/style/pos-16x9-x-b": "28",
    "component/hltv-live-t-3-money/style/pos-16x9-x-e": "33",
    "component/hltv-live-t-3-money/style/pos-16x9-y-b": "20",
    "component/hltv-live-t-3-money/style/pos-16x9-y-e": "22",
    "component/hltv-live-t-3-money/style/text-size": "2",
    "component/hltv-live-t-3-money/style/text-align": "right",
    "component/hltv-live-t-3-money/style/text-color": "black",
    "component/hltv-live-t-3-money/style/text-style": "bold",

    "component/hltv-live-t-3-kills/data": "com/hltv/live/TERRORIST/3/score",
    "component/hltv-live-t-3-kills/custom-style": "net/counter-strike/style/t",
    "component/hltv-live-t-3-kills/style/display": "show",
    "component/hltv-live-t-3-kills/style/pos-16x9-x-b": "34",
    "component/hltv-live-t-3-kills/style/pos-16x9-x-e": "36",
    "component/hltv-live-t-3-kills/style/pos-16x9-y-b": "20",
    "component/hltv-live-t-3-kills/style/pos-16x9-y-e": "22",
    "component/hltv-live-t-3-kills/style/text-size": "2",
    "component/hltv-live-t-3-kills/style/text-align": "center",
    "component/hltv-live-t-3-kills/style/text-color": "black",
    "component/hltv-live-t-3-kills/style/text-style": "bold",
    "component/hltv-live-t-3-assists/data": "com/hltv/live/TERRORIST/3/assists",
    "component/hltv-live-t-3-assists/custom-style": "net/counter-strike/style/t",
    "component/hltv-live-t-3-assists/style/display": "show",
    "component/hltv-live-t-3-assists/style/pos-16x9-x-b": "36",
    "component/hltv-live-t-3-assists/style/pos-16x9-x-e": "38",
    "component/hltv-live-t-3-assists/style/pos-16x9-y-b": "20",
    "component/hltv-live-t-3-assists/style/pos-16x9-y-e": "22",
    "component/hltv-live-t-3-assists/style/text-size": "2",
    "component/hltv-live-t-3-assists/style/text-align": "center",
    "component/hltv-live-t-3-assists/style/text-color": "black",
    "component/hltv-live-t-3-assists/style/text-style": "bold",
    "component/hltv-live-t-3-deaths/data": "com/hltv/live/TERRORIST/3/deaths",
    "component/hltv-live-t-3-deaths/custom-style": "net/counter-strike/style/t",
    "component/hltv-live-t-3-deaths/style/display": "show",
    "component/hltv-live-t-3-deaths/style/pos-16x9-x-b": "38",
    "component/hltv-live-t-3-deaths/style/pos-16x9-x-e": "40",
    "component/hltv-live-t-3-deaths/style/pos-16x9-y-b": "20",
    "component/hltv-live-t-3-deaths/style/pos-16x9-y-e": "22",
    "component/hltv-live-t-3-deaths/style/text-size": "2",
    "component/hltv-live-t-3-deaths/style/text-align": "center",
    "component/hltv-live-t-3-deaths/style/text-color": "black",
    "component/hltv-live-t-3-deaths/style/text-style": "bold",

    "component/hltv-live-t-3-adr/data": "com/hltv/live/TERRORIST/3/damagePrRound",
    "component/hltv-live-t-3-adr/mode": "round",
    "component/hltv-live-t-3-adr/custom-style": "net/counter-strike/style/t",
    "component/hltv-live-t-3-adr/style/display": "show",
    "component/hltv-live-t-3-adr/style/pos-16x9-x-b": "41",
    "component/hltv-live-t-3-adr/style/pos-16x9-x-e": "46",
    "component/hltv-live-t-3-adr/style/pos-16x9-y-b": "20",
    "component/hltv-live-t-3-adr/style/pos-16x9-y-e": "22",
    "component/hltv-live-t-3-adr/style/text-size": "2",
    "component/hltv-live-t-3-adr/style/text-align": "center",
    "component/hltv-live-t-3-adr/style/text-color": "black",
    "component/hltv-live-t-3-adr/style/text-style": "bold",
    
    "component/hltv-live-t-4-name/data": "com/hltv/live/TERRORIST/4/name",
    "component/hltv-live-t-4-name/custom-style": "net/counter-strike/style/t",
    "component/hltv-live-t-4-name/style/display": "show",
    "component/hltv-live-t-4-name/style/pos-16x9-x-b": "5",
    "component/hltv-live-t-4-name/style/pos-16x9-x-e": "15",
    "component/hltv-live-t-4-name/style/pos-16x9-y-b": "22",
    "component/hltv-live-t-4-name/style/pos-16x9-y-e": "24",
    "component/hltv-live-t-4-name/style/text-size": "2",
    "component/hltv-live-t-4-name/style/text-align": "left",
    "component/hltv-live-t-4-name/style/text-color": "black",
    "component/hltv-live-t-4-name/style/text-style": "bold",
    "component/hltv-live-t-4-hp/data": "com/hltv/live/TERRORIST/4/hp",
    "component/hltv-live-t-4-hp/custom-style": "net/counter-strike/style/t",
    "component/hltv-live-t-4-hp/style/display": "show",
    "component/hltv-live-t-4-hp/style/pos-16x9-x-b": "16",
    "component/hltv-live-t-4-hp/style/pos-16x9-x-e": "19",
    "component/hltv-live-t-4-hp/style/pos-16x9-y-b": "22",
    "component/hltv-live-t-4-hp/style/pos-16x9-y-e": "24",
    "component/hltv-live-t-4-hp/style/text-size": "2",
    "component/hltv-live-t-4-hp/style/text-align": "center",
    "component/hltv-live-t-4-hp/style/text-color": "black",
    "component/hltv-live-t-4-hp/style/text-style": "bold",
    "component/hltv-live-t-4-armor/data": "com/hltv/live/TERRORIST/4/armor",
    "component/hltv-live-t-4-armor/custom-style": "net/counter-strike/style/t",
    "component/hltv-live-t-4-armor/style/display": "show",
    "component/hltv-live-t-4-armor/style/pos-16x9-x-b": "19",
    "component/hltv-live-t-4-armor/style/pos-16x9-x-e": "21",
    "component/hltv-live-t-4-armor/style/pos-16x9-y-b": "22",
    "component/hltv-live-t-4-armor/style/pos-16x9-y-e": "24",
    "component/hltv-live-t-4-armor/style/text-size": "2",
    "component/hltv-live-t-4-armor/style/text-align": "center",
    "component/hltv-live-t-4-armor/style/text-color": "black",
    "component/hltv-live-t-4-armor/style/text-style": "bold",

    "component/hltv-live-t-4-weapon/data": "com/hltv/live/TERRORIST/4/primaryWeapon",
    "component/hltv-live-t-4-weapon/mode": "hltv-csgo-icon",
    "component/hltv-live-t-4-weapon/custom-style": "net/counter-strike/style/t",
    "component/hltv-live-t-4-weapon/style/display": "show",
    "component/hltv-live-t-4-weapon/style/pos-16x9-x-b": "22",
    "component/hltv-live-t-4-weapon/style/pos-16x9-x-e": "27",
    "component/hltv-live-t-4-weapon/style/pos-16x9-y-b": "22",
    "component/hltv-live-t-4-weapon/style/pos-16x9-y-e": "24",
    "component/hltv-live-t-4-weapon/style/text-size": "2",
    "component/hltv-live-t-4-weapon/style/text-align": "center",
    "component/hltv-live-t-4-weapon/style/text-color": "black",
    "component/hltv-live-t-4-weapon/style/text-style": "bold",

    "component/hltv-live-t-4-money/data": "com/hltv/live/TERRORIST/4/money",
    "component/hltv-live-t-4-money/custom-style": "net/counter-strike/style/t",
    "component/hltv-live-t-4-money/style/display": "show",
    "component/hltv-live-t-4-money/style/pos-16x9-x-b": "28",
    "component/hltv-live-t-4-money/style/pos-16x9-x-e": "33",
    "component/hltv-live-t-4-money/style/pos-16x9-y-b": "22",
    "component/hltv-live-t-4-money/style/pos-16x9-y-e": "24",
    "component/hltv-live-t-4-money/style/text-size": "2",
    "component/hltv-live-t-4-money/style/text-align": "right",
    "component/hltv-live-t-4-money/style/text-color": "black",
    "component/hltv-live-t-4-money/style/text-style": "bold",

    "component/hltv-live-t-4-kills/data": "com/hltv/live/TERRORIST/4/score",
    "component/hltv-live-t-4-kills/custom-style": "net/counter-strike/style/t",
    "component/hltv-live-t-4-kills/style/display": "show",
    "component/hltv-live-t-4-kills/style/pos-16x9-x-b": "34",
    "component/hltv-live-t-4-kills/style/pos-16x9-x-e": "36",
    "component/hltv-live-t-4-kills/style/pos-16x9-y-b": "22",
    "component/hltv-live-t-4-kills/style/pos-16x9-y-e": "24",
    "component/hltv-live-t-4-kills/style/text-size": "2",
    "component/hltv-live-t-4-kills/style/text-align": "center",
    "component/hltv-live-t-4-kills/style/text-color": "black",
    "component/hltv-live-t-4-kills/style/text-style": "bold",
    "component/hltv-live-t-4-assists/data": "com/hltv/live/TERRORIST/4/assists",
    "component/hltv-live-t-4-assists/custom-style": "net/counter-strike/style/t",
    "component/hltv-live-t-4-assists/style/display": "show",
    "component/hltv-live-t-4-assists/style/pos-16x9-x-b": "36",
    "component/hltv-live-t-4-assists/style/pos-16x9-x-e": "38",
    "component/hltv-live-t-4-assists/style/pos-16x9-y-b": "22",
    "component/hltv-live-t-4-assists/style/pos-16x9-y-e": "24",
    "component/hltv-live-t-4-assists/style/text-size": "2",
    "component/hltv-live-t-4-assists/style/text-align": "center",
    "component/hltv-live-t-4-assists/style/text-color": "black",
    "component/hltv-live-t-4-assists/style/text-style": "bold",
    "component/hltv-live-t-4-deaths/data": "com/hltv/live/TERRORIST/4/deaths",
    "component/hltv-live-t-4-deaths/custom-style": "net/counter-strike/style/t",
    "component/hltv-live-t-4-deaths/style/display": "show",
    "component/hltv-live-t-4-deaths/style/pos-16x9-x-b": "38",
    "component/hltv-live-t-4-deaths/style/pos-16x9-x-e": "40",
    "component/hltv-live-t-4-deaths/style/pos-16x9-y-b": "22",
    "component/hltv-live-t-4-deaths/style/pos-16x9-y-e": "24",
    "component/hltv-live-t-4-deaths/style/text-size": "2",
    "component/hltv-live-t-4-deaths/style/text-align": "center",
    "component/hltv-live-t-4-deaths/style/text-color": "black",
    "component/hltv-live-t-4-deaths/style/text-style": "bold",

    "component/hltv-live-t-4-adr/data": "com/hltv/live/TERRORIST/4/damagePrRound",
    "component/hltv-live-t-4-adr/mode": "round",
    "component/hltv-live-t-4-adr/custom-style": "net/counter-strike/style/t",
    "component/hltv-live-t-4-adr/style/display": "show",
    "component/hltv-live-t-4-adr/style/pos-16x9-x-b": "41",
    "component/hltv-live-t-4-adr/style/pos-16x9-x-e": "46",
    "component/hltv-live-t-4-adr/style/pos-16x9-y-b": "22",
    "component/hltv-live-t-4-adr/style/pos-16x9-y-e": "24",
    "component/hltv-live-t-4-adr/style/text-size": "2",
    "component/hltv-live-t-4-adr/style/text-align": "center",
    "component/hltv-live-t-4-adr/style/text-color": "black",
    "component/hltv-live-t-4-adr/style/text-style": "bold",
    


    "data/net/counter-strike/style/ct":"background-color: #0091d4; color: #000000",
    "data/net/counter-strike/style/t":"background-color: #fab200; color: #000000",

    "overlay/hltv-live-ct-0/components": "hltv-live-ct-0-name,hltv-live-ct-0-hp,hltv-live-ct-0-armor,hltv-live-ct-0-weapon,hltv-live-ct-0-money,hltv-live-ct-0-kills,hltv-live-ct-0-assists,hltv-live-ct-0-deaths,hltv-live-ct-0-adr",
    "overlay/hltv-live-ct-0/display": "show",
    "overlay/hltv-live-ct-1/components": "hltv-live-ct-1-name,hltv-live-ct-1-hp,hltv-live-ct-1-armor,hltv-live-ct-1-weapon,hltv-live-ct-1-money,hltv-live-ct-1-kills,hltv-live-ct-1-assists,hltv-live-ct-1-deaths,hltv-live-ct-1-adr",
    "overlay/hltv-live-ct-1/display": "show",
    "overlay/hltv-live-ct-2/components": "hltv-live-ct-2-name,hltv-live-ct-2-hp,hltv-live-ct-2-armor,hltv-live-ct-2-weapon,hltv-live-ct-2-money,hltv-live-ct-2-kills,hltv-live-ct-2-assists,hltv-live-ct-2-deaths,hltv-live-ct-2-adr",
    "overlay/hltv-live-ct-2/display": "show",
    "overlay/hltv-live-ct-3/components": "hltv-live-ct-3-name,hltv-live-ct-3-hp,hltv-live-ct-3-armor,hltv-live-ct-3-weapon,hltv-live-ct-3-money,hltv-live-ct-3-kills,hltv-live-ct-3-assists,hltv-live-ct-3-deaths,hltv-live-ct-3-adr",
    "overlay/hltv-live-ct-3/display": "show",
    "overlay/hltv-live-ct-4/components": "hltv-live-ct-4-name,hltv-live-ct-4-hp,hltv-live-ct-4-armor,hltv-live-ct-4-weapon,hltv-live-ct-4-money,hltv-live-ct-4-kills,hltv-live-ct-4-assists,hltv-live-ct-4-deaths,hltv-live-ct-4-adr",
    "overlay/hltv-live-ct-4/display": "show",
    "overlay/hltv-live-t-0/components": "hltv-live-t-0-name,hltv-live-t-0-hp,hltv-live-t-0-armor,hltv-live-t-0-weapon,hltv-live-t-0-money,hltv-live-t-0-kills,hltv-live-t-0-assists,hltv-live-t-0-deaths,hltv-live-t-0-adr",
    "overlay/hltv-live-t-0/display": "show",
    "overlay/hltv-live-t-1/components": "hltv-live-t-1-name,hltv-live-t-1-hp,hltv-live-t-1-armor,hltv-live-t-1-weapon,hltv-live-t-1-money,hltv-live-t-1-kills,hltv-live-t-1-assists,hltv-live-t-1-deaths,hltv-live-t-1-adr",
    "overlay/hltv-live-t-1/display": "show",
    "overlay/hltv-live-t-2/components": "hltv-live-t-2-name,hltv-live-t-2-hp,hltv-live-t-2-armor,hltv-live-t-2-weapon,hltv-live-t-2-money,hltv-live-t-2-kills,hltv-live-t-2-assists,hltv-live-t-2-deaths,hltv-live-t-2-adr",
    "overlay/hltv-live-t-2/display": "show",
    "overlay/hltv-live-t-3/components": "hltv-live-t-3-name,hltv-live-t-3-hp,hltv-live-t-3-armor,hltv-live-t-3-weapon,hltv-live-t-3-money,hltv-live-t-3-kills,hltv-live-t-3-assists,hltv-live-t-3-deaths,hltv-live-t-3-adr",
    "overlay/hltv-live-t-3/display": "show",
    "overlay/hltv-live-t-4/components": "hltv-live-t-4-name,hltv-live-t-4-hp,hltv-live-t-4-armor,hltv-live-t-4-weapon,hltv-live-t-4-money,hltv-live-t-4-kills,hltv-live-t-4-assists,hltv-live-t-4-deaths,hltv-live-t-4-adr",
    "overlay/hltv-live-t-4/display": "show",
    "premix/hltv-live/overlays": "hltv-live-ct-0,hltv-live-ct-1,hltv-live-ct-2,hltv-live-ct-3,hltv-live-ct-4,hltv-live-t-0,hltv-live-t-1,hltv-live-t-2,hltv-live-t-3,hltv-live-t-4",
    "premix/hltv-live/display": "show"
  }
}