{
  "header": {
    "version": "6.0.0.dev0"
  },
  "init": {
    "component/indycar-flag/data": "com/indycar/ts-raw/heartbeat/currentFlag",
    "component/indycar-flag/style/bg": "100-black",
    "component/indycar-flag/style/display": "show",
    "component/indycar-flag/style/pos-16x9-x-b": "2",
    "component/indycar-flag/style/pos-16x9-x-e": "5",
    "component/indycar-flag/style/pos-16x9-y-b": "2",
    "component/indycar-flag/style/pos-16x9-y-e": "3",
    "component/indycar-flag/style/text-color": "white",
    "component/indycar-flag/style/text-style": "normal",
    "component/indycar-completed-laps/data": "com/indycar/ts/lap_info/lap_info",
    "component/indycar-completed-laps/style/bg": "75-black",
    "component/indycar-completed-laps/style/display": "show",
    "component/indycar-completed-laps/style/pos-16x9-x-b": "5",
    "component/indycar-completed-laps/style/pos-16x9-x-e": "8",
    "component/indycar-completed-laps/style/pos-16x9-y-b": "2",
    "component/indycar-completed-laps/style/pos-16x9-y-e": "3",
    "component/indycar-completed-laps/style/text-color": "white",
    "component/indycar-completed-laps/style/text-style": "normal",
    "component/indycar-message/data": "com/indycar/ts-raw/message/msg",
    "component/indycar-message/style/bg": "50-black",
    "component/indycar-message/style/display": "show",
    "component/indycar-message/style/pos-16x9-x-b": "8",
    "component/indycar-message/style/pos-16x9-x-e": "23",
    "component/indycar-message/style/pos-16x9-y-b": "2",
    "component/indycar-message/style/pos-16x9-y-e": "3",
    "component/indycar-message/style/text-color": "white",
    "component/indycar-message/style/text-align": "left",
    "component/indycar-message/style/text-style": "normal",
    "component/indycar-p01-pos/data": "com/indycar/ts-raw/overallRank/1/overallRank",
    "component/indycar-p01-pos/style/bg": "80-black",
    "component/indycar-p01-pos/style/display": "show",
    "component/indycar-p01-pos/style/pos-16x9-x-b": "2",
    "component/indycar-p01-pos/style/pos-16x9-x-e": "3",
    "component/indycar-p01-pos/style/pos-16x9-y-b": "3",
    "component/indycar-p01-pos/style/pos-16x9-y-e": "4",
    "component/indycar-p01-pos/style/text-color": "white",
    "component/indycar-p01-pos/style/text-style": "normal",
    "component/indycar-p01-name/data": "com/indycar/ts-raw/overallRank/1/lastName",
    "component/indycar-p01-name/style/bg": "70-black",
    "component/indycar-p01-name/style/display": "show",
    "component/indycar-p01-name/style/pos-16x9-x-b": "3",
    "component/indycar-p01-name/style/pos-16x9-x-e": "8",
    "component/indycar-p01-name/style/pos-16x9-y-b": "3",
    "component/indycar-p01-name/style/pos-16x9-y-e": "4",
    "component/indycar-p01-name/style/text-align": "left",
    "component/indycar-p01-name/style/text-color": "white",
    "component/indycar-p01-name/style/text-style": "normal",
    "component/indycar-p01-behind-minus/data": "io/github/enzanki-ars/indycar/behind-minus",
    "component/indycar-p01-behind-minus/style/bg": "60-black",
    "component/indycar-p01-behind-minus/style/display": "show",
    "component/indycar-p01-behind-minus/style/pos-16x9-x-b": "8",
    "component/indycar-p01-behind-minus/style/pos-16x9-x-e": "9",
    "component/indycar-p01-behind-minus/style/pos-16x9-y-b": "3",
    "component/indycar-p01-behind-minus/style/pos-16x9-y-e": "4",
    "component/indycar-p01-behind-minus/style/text-color": "white",
    "component/indycar-p01-behind-minus/style/text-style": "normal",
    "component/indycar-p01-time/data": "com/indycar/ts-raw/overallRank/1/behindLeader",
    "component/indycar-p01-time/style/bg": "60-black",
    "component/indycar-p01-time/style/display": "show",
    "component/indycar-p01-time/style/pos-16x9-x-b": "9",
    "component/indycar-p01-time/style/pos-16x9-x-e": "12",
    "component/indycar-p01-time/style/pos-16x9-y-b": "3",
    "component/indycar-p01-time/style/pos-16x9-y-e": "4",
    "component/indycar-p01-time/style/text-color": "white",
    "component/indycar-p01-time/style/text-style": "normal",
    "component/indycar-p02-pos/data": "com/indycar/ts-raw/overallRank/2/overallRank",
    "component/indycar-p02-pos/style/bg": "80-black",
    "component/indycar-p02-pos/style/display": "show",
    "component/indycar-p02-pos/style/pos-16x9-x-b": "2",
    "component/indycar-p02-pos/style/pos-16x9-x-e": "3",
    "component/indycar-p02-pos/style/pos-16x9-y-b": "4",
    "component/indycar-p02-pos/style/pos-16x9-y-e": "5",
    "component/indycar-p02-pos/style/text-color": "white",
    "component/indycar-p02-pos/style/text-style": "normal",
    "component/indycar-p02-name/data": "com/indycar/ts-raw/overallRank/2/lastName",
    "component/indycar-p02-name/style/bg": "70-black",
    "component/indycar-p02-name/style/display": "show",
    "component/indycar-p02-name/style/pos-16x9-x-b": "3",
    "component/indycar-p02-name/style/pos-16x9-x-e": "8",
    "component/indycar-p02-name/style/pos-16x9-y-b": "4",
    "component/indycar-p02-name/style/pos-16x9-y-e": "5",
    "component/indycar-p02-name/style/text-align": "left",
    "component/indycar-p02-name/style/text-color": "white",
    "component/indycar-p02-name/style/text-style": "normal",
    "component/indycar-p02-behind-minus/data": "io/github/enzanki-ars/indycar/behind-minus",
    "component/indycar-p02-behind-minus/style/bg": "60-black",
    "component/indycar-p02-behind-minus/style/display": "show",
    "component/indycar-p02-behind-minus/style/pos-16x9-x-b": "8",
    "component/indycar-p02-behind-minus/style/pos-16x9-x-e": "9",
    "component/indycar-p02-behind-minus/style/pos-16x9-y-b": "4",
    "component/indycar-p02-behind-minus/style/pos-16x9-y-e": "5",
    "component/indycar-p02-behind-minus/style/text-color": "white",
    "component/indycar-p02-behind-minus/style/text-style": "normal",
    "component/indycar-p02-time/data": "com/indycar/ts-raw/overallRank/2/behindLeader",
    "component/indycar-p02-time/style/bg": "60-black",
    "component/indycar-p02-time/style/display": "show",
    "component/indycar-p02-time/style/pos-16x9-x-b": "9",
    "component/indycar-p02-time/style/pos-16x9-x-e": "12",
    "component/indycar-p02-time/style/pos-16x9-y-b": "4",
    "component/indycar-p02-time/style/pos-16x9-y-e": "5",
    "component/indycar-p02-time/style/text-color": "white",
    "component/indycar-p02-time/style/text-style": "normal",
    "component/indycar-p03-pos/data": "com/indycar/ts-raw/overallRank/3/overallRank",
    "component/indycar-p03-pos/style/bg": "80-black",
    "component/indycar-p03-pos/style/display": "show",
    "component/indycar-p03-pos/style/pos-16x9-x-b": "2",
    "component/indycar-p03-pos/style/pos-16x9-x-e": "3",
    "component/indycar-p03-pos/style/pos-16x9-y-b": "5",
    "component/indycar-p03-pos/style/pos-16x9-y-e": "6",
    "component/indycar-p03-pos/style/text-color": "white",
    "component/indycar-p03-pos/style/text-style": "normal",
    "component/indycar-p03-name/data": "com/indycar/ts-raw/overallRank/3/lastName",
    "component/indycar-p03-name/style/bg": "70-black",
    "component/indycar-p03-name/style/display": "show",
    "component/indycar-p03-name/style/pos-16x9-x-b": "3",
    "component/indycar-p03-name/style/pos-16x9-x-e": "8",
    "component/indycar-p03-name/style/pos-16x9-y-b": "5",
    "component/indycar-p03-name/style/pos-16x9-y-e": "6",
    "component/indycar-p03-name/style/text-align": "left",
    "component/indycar-p03-name/style/text-color": "white",
    "component/indycar-p03-name/style/text-style": "normal",
    "component/indycar-p03-behind-minus/data": "io/github/enzanki-ars/indycar/behind-minus",
    "component/indycar-p03-behind-minus/style/bg": "60-black",
    "component/indycar-p03-behind-minus/style/display": "show",
    "component/indycar-p03-behind-minus/style/pos-16x9-x-b": "8",
    "component/indycar-p03-behind-minus/style/pos-16x9-x-e": "9",
    "component/indycar-p03-behind-minus/style/pos-16x9-y-b": "5",
    "component/indycar-p03-behind-minus/style/pos-16x9-y-e": "6",
    "component/indycar-p03-behind-minus/style/text-color": "white",
    "component/indycar-p03-behind-minus/style/text-style": "normal",
    "component/indycar-p03-time/data": "com/indycar/ts-raw/overallRank/3/behindLeader",
    "component/indycar-p03-time/style/bg": "60-black",
    "component/indycar-p03-time/style/display": "show",
    "component/indycar-p03-time/style/pos-16x9-x-b": "9",
    "component/indycar-p03-time/style/pos-16x9-x-e": "12",
    "component/indycar-p03-time/style/pos-16x9-y-b": "5",
    "component/indycar-p03-time/style/pos-16x9-y-e": "6",
    "component/indycar-p03-time/style/text-color": "white",
    "component/indycar-p03-time/style/text-style": "normal",
    "component/indycar-p04-pos/data": "com/indycar/ts-raw/overallRank/4/overallRank",
    "component/indycar-p04-pos/style/bg": "80-black",
    "component/indycar-p04-pos/style/display": "show",
    "component/indycar-p04-pos/style/pos-16x9-x-b": "2",
    "component/indycar-p04-pos/style/pos-16x9-x-e": "3",
    "component/indycar-p04-pos/style/pos-16x9-y-b": "6",
    "component/indycar-p04-pos/style/pos-16x9-y-e": "7",
    "component/indycar-p04-pos/style/text-color": "white",
    "component/indycar-p04-pos/style/text-style": "normal",
    "component/indycar-p04-name/data": "com/indycar/ts-raw/overallRank/4/lastName",
    "component/indycar-p04-name/style/bg": "70-black",
    "component/indycar-p04-name/style/display": "show",
    "component/indycar-p04-name/style/pos-16x9-x-b": "3",
    "component/indycar-p04-name/style/pos-16x9-x-e": "8",
    "component/indycar-p04-name/style/pos-16x9-y-b": "6",
    "component/indycar-p04-name/style/pos-16x9-y-e": "7",
    "component/indycar-p04-name/style/text-align": "left",
    "component/indycar-p04-name/style/text-color": "white",
    "component/indycar-p04-name/style/text-style": "normal",
    "component/indycar-p04-behind-minus/data": "io/github/enzanki-ars/indycar/behind-minus",
    "component/indycar-p04-behind-minus/style/bg": "60-black",
    "component/indycar-p04-behind-minus/style/display": "show",
    "component/indycar-p04-behind-minus/style/pos-16x9-x-b": "8",
    "component/indycar-p04-behind-minus/style/pos-16x9-x-e": "9",
    "component/indycar-p04-behind-minus/style/pos-16x9-y-b": "6",
    "component/indycar-p04-behind-minus/style/pos-16x9-y-e": "7",
    "component/indycar-p04-behind-minus/style/text-color": "white",
    "component/indycar-p04-behind-minus/style/text-style": "normal",
    "component/indycar-p04-time/data": "com/indycar/ts-raw/overallRank/4/behindLeader",
    "component/indycar-p04-time/style/bg": "60-black",
    "component/indycar-p04-time/style/display": "show",
    "component/indycar-p04-time/style/pos-16x9-x-b": "9",
    "component/indycar-p04-time/style/pos-16x9-x-e": "12",
    "component/indycar-p04-time/style/pos-16x9-y-b": "6",
    "component/indycar-p04-time/style/pos-16x9-y-e": "7",
    "component/indycar-p04-time/style/text-color": "white",
    "component/indycar-p04-time/style/text-style": "normal",
    "component/indycar-p05-pos/data": "com/indycar/ts-raw/overallRank/5/overallRank",
    "component/indycar-p05-pos/style/bg": "80-black",
    "component/indycar-p05-pos/style/display": "show",
    "component/indycar-p05-pos/style/pos-16x9-x-b": "2",
    "component/indycar-p05-pos/style/pos-16x9-x-e": "3",
    "component/indycar-p05-pos/style/pos-16x9-y-b": "7",
    "component/indycar-p05-pos/style/pos-16x9-y-e": "8",
    "component/indycar-p05-pos/style/text-color": "white",
    "component/indycar-p05-pos/style/text-style": "normal",
    "component/indycar-p05-name/data": "com/indycar/ts-raw/overallRank/5/lastName",
    "component/indycar-p05-name/style/bg": "70-black",
    "component/indycar-p05-name/style/display": "show",
    "component/indycar-p05-name/style/pos-16x9-x-b": "3",
    "component/indycar-p05-name/style/pos-16x9-x-e": "8",
    "component/indycar-p05-name/style/pos-16x9-y-b": "7",
    "component/indycar-p05-name/style/pos-16x9-y-e": "8",
    "component/indycar-p05-name/style/text-align": "left",
    "component/indycar-p05-name/style/text-color": "white",
    "component/indycar-p05-name/style/text-style": "normal",
    "component/indycar-p05-behind-minus/data": "io/github/enzanki-ars/indycar/behind-minus",
    "component/indycar-p05-behind-minus/style/bg": "60-black",
    "component/indycar-p05-behind-minus/style/display": "show",
    "component/indycar-p05-behind-minus/style/pos-16x9-x-b": "8",
    "component/indycar-p05-behind-minus/style/pos-16x9-x-e": "9",
    "component/indycar-p05-behind-minus/style/pos-16x9-y-b": "7",
    "component/indycar-p05-behind-minus/style/pos-16x9-y-e": "8",
    "component/indycar-p05-behind-minus/style/text-color": "white",
    "component/indycar-p05-behind-minus/style/text-style": "normal",
    "component/indycar-p05-time/data": "com/indycar/ts-raw/overallRank/5/behindLeader",
    "component/indycar-p05-time/style/bg": "60-black",
    "component/indycar-p05-time/style/display": "show",
    "component/indycar-p05-time/style/pos-16x9-x-b": "9",
    "component/indycar-p05-time/style/pos-16x9-x-e": "12",
    "component/indycar-p05-time/style/pos-16x9-y-b": "7",
    "component/indycar-p05-time/style/pos-16x9-y-e": "8",
    "component/indycar-p05-time/style/text-color": "white",
    "component/indycar-p05-time/style/text-style": "normal",
    "component/indycar-p06-pos/data": "com/indycar/ts-raw/overallRank/6/overallRank",
    "component/indycar-p06-pos/style/bg": "80-black",
    "component/indycar-p06-pos/style/display": "show",
    "component/indycar-p06-pos/style/pos-16x9-x-b": "2",
    "component/indycar-p06-pos/style/pos-16x9-x-e": "3",
    "component/indycar-p06-pos/style/pos-16x9-y-b": "8",
    "component/indycar-p06-pos/style/pos-16x9-y-e": "9",
    "component/indycar-p06-pos/style/text-color": "white",
    "component/indycar-p06-pos/style/text-style": "normal",
    "component/indycar-p06-name/data": "com/indycar/ts-raw/overallRank/6/lastName",
    "component/indycar-p06-name/style/bg": "70-black",
    "component/indycar-p06-name/style/display": "show",
    "component/indycar-p06-name/style/pos-16x9-x-b": "3",
    "component/indycar-p06-name/style/pos-16x9-x-e": "8",
    "component/indycar-p06-name/style/pos-16x9-y-b": "8",
    "component/indycar-p06-name/style/pos-16x9-y-e": "9",
    "component/indycar-p06-name/style/text-align": "left",
    "component/indycar-p06-name/style/text-color": "white",
    "component/indycar-p06-name/style/text-style": "normal",
    "component/indycar-p06-behind-minus/data": "io/github/enzanki-ars/indycar/behind-minus",
    "component/indycar-p06-behind-minus/style/bg": "60-black",
    "component/indycar-p06-behind-minus/style/display": "show",
    "component/indycar-p06-behind-minus/style/pos-16x9-x-b": "8",
    "component/indycar-p06-behind-minus/style/pos-16x9-x-e": "9",
    "component/indycar-p06-behind-minus/style/pos-16x9-y-b": "8",
    "component/indycar-p06-behind-minus/style/pos-16x9-y-e": "9",
    "component/indycar-p06-behind-minus/style/text-color": "white",
    "component/indycar-p06-behind-minus/style/text-style": "normal",
    "component/indycar-p06-time/data": "com/indycar/ts-raw/overallRank/6/behindLeader",
    "component/indycar-p06-time/style/bg": "60-black",
    "component/indycar-p06-time/style/display": "show",
    "component/indycar-p06-time/style/pos-16x9-x-b": "9",
    "component/indycar-p06-time/style/pos-16x9-x-e": "12",
    "component/indycar-p06-time/style/pos-16x9-y-b": "8",
    "component/indycar-p06-time/style/pos-16x9-y-e": "9",
    "component/indycar-p06-time/style/text-color": "white",
    "component/indycar-p06-time/style/text-style": "normal",
    "component/indycar-p07-pos/data": "com/indycar/ts-raw/overallRank/7/overallRank",
    "component/indycar-p07-pos/style/bg": "80-black",
    "component/indycar-p07-pos/style/display": "show",
    "component/indycar-p07-pos/style/pos-16x9-x-b": "2",
    "component/indycar-p07-pos/style/pos-16x9-x-e": "3",
    "component/indycar-p07-pos/style/pos-16x9-y-b": "9",
    "component/indycar-p07-pos/style/pos-16x9-y-e": "10",
    "component/indycar-p07-pos/style/text-color": "white",
    "component/indycar-p07-pos/style/text-style": "normal",
    "component/indycar-p07-name/data": "com/indycar/ts-raw/overallRank/7/lastName",
    "component/indycar-p07-name/style/bg": "70-black",
    "component/indycar-p07-name/style/display": "show",
    "component/indycar-p07-name/style/pos-16x9-x-b": "3",
    "component/indycar-p07-name/style/pos-16x9-x-e": "8",
    "component/indycar-p07-name/style/pos-16x9-y-b": "9",
    "component/indycar-p07-name/style/pos-16x9-y-e": "10",
    "component/indycar-p07-name/style/text-align": "left",
    "component/indycar-p07-name/style/text-color": "white",
    "component/indycar-p07-name/style/text-style": "normal",
    "component/indycar-p07-behind-minus/data": "io/github/enzanki-ars/indycar/behind-minus",
    "component/indycar-p07-behind-minus/style/bg": "60-black",
    "component/indycar-p07-behind-minus/style/display": "show",
    "component/indycar-p07-behind-minus/style/pos-16x9-x-b": "8",
    "component/indycar-p07-behind-minus/style/pos-16x9-x-e": "9",
    "component/indycar-p07-behind-minus/style/pos-16x9-y-b": "9",
    "component/indycar-p07-behind-minus/style/pos-16x9-y-e": "10",
    "component/indycar-p07-behind-minus/style/text-color": "white",
    "component/indycar-p07-behind-minus/style/text-style": "normal",
    "component/indycar-p07-time/data": "com/indycar/ts-raw/overallRank/7/behindLeader",
    "component/indycar-p07-time/style/bg": "60-black",
    "component/indycar-p07-time/style/display": "show",
    "component/indycar-p07-time/style/pos-16x9-x-b": "9",
    "component/indycar-p07-time/style/pos-16x9-x-e": "12",
    "component/indycar-p07-time/style/pos-16x9-y-b": "9",
    "component/indycar-p07-time/style/pos-16x9-y-e": "10",
    "component/indycar-p07-time/style/text-color": "white",
    "component/indycar-p07-time/style/text-style": "normal",
    "component/indycar-p08-pos/data": "com/indycar/ts-raw/overallRank/8/overallRank",
    "component/indycar-p08-pos/style/bg": "80-black",
    "component/indycar-p08-pos/style/display": "show",
    "component/indycar-p08-pos/style/pos-16x9-x-b": "2",
    "component/indycar-p08-pos/style/pos-16x9-x-e": "3",
    "component/indycar-p08-pos/style/pos-16x9-y-b": "10",
    "component/indycar-p08-pos/style/pos-16x9-y-e": "11",
    "component/indycar-p08-pos/style/text-color": "white",
    "component/indycar-p08-pos/style/text-style": "normal",
    "component/indycar-p08-name/data": "com/indycar/ts-raw/overallRank/8/lastName",
    "component/indycar-p08-name/style/bg": "70-black",
    "component/indycar-p08-name/style/display": "show",
    "component/indycar-p08-name/style/pos-16x9-x-b": "3",
    "component/indycar-p08-name/style/pos-16x9-x-e": "8",
    "component/indycar-p08-name/style/pos-16x9-y-b": "10",
    "component/indycar-p08-name/style/pos-16x9-y-e": "11",
    "component/indycar-p08-name/style/text-align": "left",
    "component/indycar-p08-name/style/text-color": "white",
    "component/indycar-p08-name/style/text-style": "normal",
    "component/indycar-p08-behind-minus/data": "io/github/enzanki-ars/indycar/behind-minus",
    "component/indycar-p08-behind-minus/style/bg": "60-black",
    "component/indycar-p08-behind-minus/style/display": "show",
    "component/indycar-p08-behind-minus/style/pos-16x9-x-b": "8",
    "component/indycar-p08-behind-minus/style/pos-16x9-x-e": "9",
    "component/indycar-p08-behind-minus/style/pos-16x9-y-b": "10",
    "component/indycar-p08-behind-minus/style/pos-16x9-y-e": "11",
    "component/indycar-p08-behind-minus/style/text-color": "white",
    "component/indycar-p08-behind-minus/style/text-style": "normal",
    "component/indycar-p08-time/data": "com/indycar/ts-raw/overallRank/8/behindLeader",
    "component/indycar-p08-time/style/bg": "60-black",
    "component/indycar-p08-time/style/display": "show",
    "component/indycar-p08-time/style/pos-16x9-x-b": "9",
    "component/indycar-p08-time/style/pos-16x9-x-e": "12",
    "component/indycar-p08-time/style/pos-16x9-y-b": "10",
    "component/indycar-p08-time/style/pos-16x9-y-e": "11",
    "component/indycar-p08-time/style/text-color": "white",
    "component/indycar-p08-time/style/text-style": "normal",
    "component/indycar-p09-pos/data": "com/indycar/ts-raw/overallRank/9/overallRank",
    "component/indycar-p09-pos/style/bg": "80-black",
    "component/indycar-p09-pos/style/display": "show",
    "component/indycar-p09-pos/style/pos-16x9-x-b": "2",
    "component/indycar-p09-pos/style/pos-16x9-x-e": "3",
    "component/indycar-p09-pos/style/pos-16x9-y-b": "11",
    "component/indycar-p09-pos/style/pos-16x9-y-e": "12",
    "component/indycar-p09-pos/style/text-color": "white",
    "component/indycar-p09-pos/style/text-style": "normal",
    "component/indycar-p09-name/data": "com/indycar/ts-raw/overallRank/9/lastName",
    "component/indycar-p09-name/style/bg": "70-black",
    "component/indycar-p09-name/style/display": "show",
    "component/indycar-p09-name/style/pos-16x9-x-b": "3",
    "component/indycar-p09-name/style/pos-16x9-x-e": "8",
    "component/indycar-p09-name/style/pos-16x9-y-b": "11",
    "component/indycar-p09-name/style/pos-16x9-y-e": "12",
    "component/indycar-p09-name/style/text-align": "left",
    "component/indycar-p09-name/style/text-color": "white",
    "component/indycar-p09-name/style/text-style": "normal",
    "component/indycar-p09-behind-minus/data": "io/github/enzanki-ars/indycar/behind-minus",
    "component/indycar-p09-behind-minus/style/bg": "60-black",
    "component/indycar-p09-behind-minus/style/display": "show",
    "component/indycar-p09-behind-minus/style/pos-16x9-x-b": "8",
    "component/indycar-p09-behind-minus/style/pos-16x9-x-e": "9",
    "component/indycar-p09-behind-minus/style/pos-16x9-y-b": "11",
    "component/indycar-p09-behind-minus/style/pos-16x9-y-e": "12",
    "component/indycar-p09-behind-minus/style/text-color": "white",
    "component/indycar-p09-behind-minus/style/text-style": "normal",
    "component/indycar-p09-time/data": "com/indycar/ts-raw/overallRank/9/behindLeader",
    "component/indycar-p09-time/style/bg": "60-black",
    "component/indycar-p09-time/style/display": "show",
    "component/indycar-p09-time/style/pos-16x9-x-b": "9",
    "component/indycar-p09-time/style/pos-16x9-x-e": "12",
    "component/indycar-p09-time/style/pos-16x9-y-b": "11",
    "component/indycar-p09-time/style/pos-16x9-y-e": "12",
    "component/indycar-p09-time/style/text-color": "white",
    "component/indycar-p09-time/style/text-style": "normal",
    "component/indycar-p10-pos/data": "com/indycar/ts-raw/overallRank/10/overallRank",
    "component/indycar-p10-pos/style/bg": "80-black",
    "component/indycar-p10-pos/style/display": "show",
    "component/indycar-p10-pos/style/pos-16x9-x-b": "2",
    "component/indycar-p10-pos/style/pos-16x9-x-e": "3",
    "component/indycar-p10-pos/style/pos-16x9-y-b": "12",
    "component/indycar-p10-pos/style/pos-16x9-y-e": "13",
    "component/indycar-p10-pos/style/text-color": "white",
    "component/indycar-p10-pos/style/text-style": "normal",
    "component/indycar-p10-name/data": "com/indycar/ts-raw/overallRank/10/lastName",
    "component/indycar-p10-name/style/bg": "70-black",
    "component/indycar-p10-name/style/display": "show",
    "component/indycar-p10-name/style/pos-16x9-x-b": "3",
    "component/indycar-p10-name/style/pos-16x9-x-e": "8",
    "component/indycar-p10-name/style/pos-16x9-y-b": "12",
    "component/indycar-p10-name/style/pos-16x9-y-e": "13",
    "component/indycar-p10-name/style/text-align": "left",
    "component/indycar-p10-name/style/text-color": "white",
    "component/indycar-p10-name/style/text-style": "normal",
    "component/indycar-p10-behind-minus/data": "io/github/enzanki-ars/indycar/behind-minus",
    "component/indycar-p10-behind-minus/style/bg": "60-black",
    "component/indycar-p10-behind-minus/style/display": "show",
    "component/indycar-p10-behind-minus/style/pos-16x9-x-b": "8",
    "component/indycar-p10-behind-minus/style/pos-16x9-x-e": "9",
    "component/indycar-p10-behind-minus/style/pos-16x9-y-b": "12",
    "component/indycar-p10-behind-minus/style/pos-16x9-y-e": "13",
    "component/indycar-p10-behind-minus/style/text-color": "white",
    "component/indycar-p10-behind-minus/style/text-style": "normal",
    "component/indycar-p10-time/data": "com/indycar/ts-raw/overallRank/10/behindLeader",
    "component/indycar-p10-time/style/bg": "60-black",
    "component/indycar-p10-time/style/display": "show",
    "component/indycar-p10-time/style/pos-16x9-x-b": "9",
    "component/indycar-p10-time/style/pos-16x9-x-e": "12",
    "component/indycar-p10-time/style/pos-16x9-y-b": "12",
    "component/indycar-p10-time/style/pos-16x9-y-e": "13",
    "component/indycar-p10-time/style/text-color": "white",
    "component/indycar-p10-time/style/text-style": "normal",
    "component/indycar-p11-pos/data": "com/indycar/ts-raw/overallRank/11/overallRank",
    "component/indycar-p11-pos/style/bg": "80-black",
    "component/indycar-p11-pos/style/display": "show",
    "component/indycar-p11-pos/style/pos-16x9-x-b": "2",
    "component/indycar-p11-pos/style/pos-16x9-x-e": "3",
    "component/indycar-p11-pos/style/pos-16x9-y-b": "13",
    "component/indycar-p11-pos/style/pos-16x9-y-e": "14",
    "component/indycar-p11-pos/style/text-color": "white",
    "component/indycar-p11-pos/style/text-style": "normal",
    "component/indycar-p11-name/data": "com/indycar/ts-raw/overallRank/11/lastName",
    "component/indycar-p11-name/style/bg": "70-black",
    "component/indycar-p11-name/style/display": "show",
    "component/indycar-p11-name/style/pos-16x9-x-b": "3",
    "component/indycar-p11-name/style/pos-16x9-x-e": "8",
    "component/indycar-p11-name/style/pos-16x9-y-b": "13",
    "component/indycar-p11-name/style/pos-16x9-y-e": "14",
    "component/indycar-p11-name/style/text-align": "left",
    "component/indycar-p11-name/style/text-color": "white",
    "component/indycar-p11-name/style/text-style": "normal",
    "component/indycar-p11-behind-minus/data": "io/github/enzanki-ars/indycar/behind-minus",
    "component/indycar-p11-behind-minus/style/bg": "60-black",
    "component/indycar-p11-behind-minus/style/display": "show",
    "component/indycar-p11-behind-minus/style/pos-16x9-x-b": "8",
    "component/indycar-p11-behind-minus/style/pos-16x9-x-e": "9",
    "component/indycar-p11-behind-minus/style/pos-16x9-y-b": "13",
    "component/indycar-p11-behind-minus/style/pos-16x9-y-e": "14",
    "component/indycar-p11-behind-minus/style/text-color": "white",
    "component/indycar-p11-behind-minus/style/text-style": "normal",
    "component/indycar-p11-time/data": "com/indycar/ts-raw/overallRank/11/behindLeader",
    "component/indycar-p11-time/style/bg": "60-black",
    "component/indycar-p11-time/style/display": "show",
    "component/indycar-p11-time/style/pos-16x9-x-b": "9",
    "component/indycar-p11-time/style/pos-16x9-x-e": "12",
    "component/indycar-p11-time/style/pos-16x9-y-b": "13",
    "component/indycar-p11-time/style/pos-16x9-y-e": "14",
    "component/indycar-p11-time/style/text-color": "white",
    "component/indycar-p11-time/style/text-style": "normal",
    "component/indycar-p12-pos/data": "com/indycar/ts-raw/overallRank/12/overallRank",
    "component/indycar-p12-pos/style/bg": "80-black",
    "component/indycar-p12-pos/style/display": "show",
    "component/indycar-p12-pos/style/pos-16x9-x-b": "2",
    "component/indycar-p12-pos/style/pos-16x9-x-e": "3",
    "component/indycar-p12-pos/style/pos-16x9-y-b": "14",
    "component/indycar-p12-pos/style/pos-16x9-y-e": "15",
    "component/indycar-p12-pos/style/text-color": "white",
    "component/indycar-p12-pos/style/text-style": "normal",
    "component/indycar-p12-name/data": "com/indycar/ts-raw/overallRank/12/lastName",
    "component/indycar-p12-name/style/bg": "70-black",
    "component/indycar-p12-name/style/display": "show",
    "component/indycar-p12-name/style/pos-16x9-x-b": "3",
    "component/indycar-p12-name/style/pos-16x9-x-e": "8",
    "component/indycar-p12-name/style/pos-16x9-y-b": "14",
    "component/indycar-p12-name/style/pos-16x9-y-e": "15",
    "component/indycar-p12-name/style/text-align": "left",
    "component/indycar-p12-name/style/text-color": "white",
    "component/indycar-p12-name/style/text-style": "normal",
    "component/indycar-p12-behind-minus/data": "io/github/enzanki-ars/indycar/behind-minus",
    "component/indycar-p12-behind-minus/style/bg": "60-black",
    "component/indycar-p12-behind-minus/style/display": "show",
    "component/indycar-p12-behind-minus/style/pos-16x9-x-b": "8",
    "component/indycar-p12-behind-minus/style/pos-16x9-x-e": "9",
    "component/indycar-p12-behind-minus/style/pos-16x9-y-b": "14",
    "component/indycar-p12-behind-minus/style/pos-16x9-y-e": "15",
    "component/indycar-p12-behind-minus/style/text-color": "white",
    "component/indycar-p12-behind-minus/style/text-style": "normal",
    "component/indycar-p12-time/data": "com/indycar/ts-raw/overallRank/12/behindLeader",
    "component/indycar-p12-time/style/bg": "60-black",
    "component/indycar-p12-time/style/display": "show",
    "component/indycar-p12-time/style/pos-16x9-x-b": "9",
    "component/indycar-p12-time/style/pos-16x9-x-e": "12",
    "component/indycar-p12-time/style/pos-16x9-y-b": "14",
    "component/indycar-p12-time/style/pos-16x9-y-e": "15",
    "component/indycar-p12-time/style/text-color": "white",
    "component/indycar-p12-time/style/text-style": "normal",
    "component/indycar-p13-pos/data": "com/indycar/ts-raw/overallRank/13/overallRank",
    "component/indycar-p13-pos/style/bg": "80-black",
    "component/indycar-p13-pos/style/display": "show",
    "component/indycar-p13-pos/style/pos-16x9-x-b": "2",
    "component/indycar-p13-pos/style/pos-16x9-x-e": "3",
    "component/indycar-p13-pos/style/pos-16x9-y-b": "15",
    "component/indycar-p13-pos/style/pos-16x9-y-e": "16",
    "component/indycar-p13-pos/style/text-color": "white",
    "component/indycar-p13-pos/style/text-style": "normal",
    "component/indycar-p13-name/data": "com/indycar/ts-raw/overallRank/13/lastName",
    "component/indycar-p13-name/style/bg": "70-black",
    "component/indycar-p13-name/style/display": "show",
    "component/indycar-p13-name/style/pos-16x9-x-b": "3",
    "component/indycar-p13-name/style/pos-16x9-x-e": "8",
    "component/indycar-p13-name/style/pos-16x9-y-b": "15",
    "component/indycar-p13-name/style/pos-16x9-y-e": "16",
    "component/indycar-p13-name/style/text-align": "left",
    "component/indycar-p13-name/style/text-color": "white",
    "component/indycar-p13-name/style/text-style": "normal",
    "component/indycar-p13-behind-minus/data": "io/github/enzanki-ars/indycar/behind-minus",
    "component/indycar-p13-behind-minus/style/bg": "60-black",
    "component/indycar-p13-behind-minus/style/display": "show",
    "component/indycar-p13-behind-minus/style/pos-16x9-x-b": "8",
    "component/indycar-p13-behind-minus/style/pos-16x9-x-e": "9",
    "component/indycar-p13-behind-minus/style/pos-16x9-y-b": "15",
    "component/indycar-p13-behind-minus/style/pos-16x9-y-e": "16",
    "component/indycar-p13-behind-minus/style/text-color": "white",
    "component/indycar-p13-behind-minus/style/text-style": "normal",
    "component/indycar-p13-time/data": "com/indycar/ts-raw/overallRank/13/behindLeader",
    "component/indycar-p13-time/style/bg": "60-black",
    "component/indycar-p13-time/style/display": "show",
    "component/indycar-p13-time/style/pos-16x9-x-b": "9",
    "component/indycar-p13-time/style/pos-16x9-x-e": "12",
    "component/indycar-p13-time/style/pos-16x9-y-b": "15",
    "component/indycar-p13-time/style/pos-16x9-y-e": "16",
    "component/indycar-p13-time/style/text-color": "white",
    "component/indycar-p13-time/style/text-style": "normal",
    "component/indycar-p14-pos/data": "com/indycar/ts-raw/overallRank/14/overallRank",
    "component/indycar-p14-pos/style/bg": "80-black",
    "component/indycar-p14-pos/style/display": "show",
    "component/indycar-p14-pos/style/pos-16x9-x-b": "2",
    "component/indycar-p14-pos/style/pos-16x9-x-e": "3",
    "component/indycar-p14-pos/style/pos-16x9-y-b": "16",
    "component/indycar-p14-pos/style/pos-16x9-y-e": "17",
    "component/indycar-p14-pos/style/text-color": "white",
    "component/indycar-p14-pos/style/text-style": "normal",
    "component/indycar-p14-name/data": "com/indycar/ts-raw/overallRank/14/lastName",
    "component/indycar-p14-name/style/bg": "70-black",
    "component/indycar-p14-name/style/display": "show",
    "component/indycar-p14-name/style/pos-16x9-x-b": "3",
    "component/indycar-p14-name/style/pos-16x9-x-e": "8",
    "component/indycar-p14-name/style/pos-16x9-y-b": "16",
    "component/indycar-p14-name/style/pos-16x9-y-e": "17",
    "component/indycar-p14-name/style/text-align": "left",
    "component/indycar-p14-name/style/text-color": "white",
    "component/indycar-p14-name/style/text-style": "normal",
    "component/indycar-p14-behind-minus/data": "io/github/enzanki-ars/indycar/behind-minus",
    "component/indycar-p14-behind-minus/style/bg": "60-black",
    "component/indycar-p14-behind-minus/style/display": "show",
    "component/indycar-p14-behind-minus/style/pos-16x9-x-b": "8",
    "component/indycar-p14-behind-minus/style/pos-16x9-x-e": "9",
    "component/indycar-p14-behind-minus/style/pos-16x9-y-b": "16",
    "component/indycar-p14-behind-minus/style/pos-16x9-y-e": "17",
    "component/indycar-p14-behind-minus/style/text-color": "white",
    "component/indycar-p14-behind-minus/style/text-style": "normal",
    "component/indycar-p14-time/data": "com/indycar/ts-raw/overallRank/14/behindLeader",
    "component/indycar-p14-time/style/bg": "60-black",
    "component/indycar-p14-time/style/display": "show",
    "component/indycar-p14-time/style/pos-16x9-x-b": "9",
    "component/indycar-p14-time/style/pos-16x9-x-e": "12",
    "component/indycar-p14-time/style/pos-16x9-y-b": "16",
    "component/indycar-p14-time/style/pos-16x9-y-e": "17",
    "component/indycar-p14-time/style/text-color": "white",
    "component/indycar-p14-time/style/text-style": "normal",
    "component/indycar-p15-pos/data": "com/indycar/ts-raw/overallRank/15/overallRank",
    "component/indycar-p15-pos/style/bg": "80-black",
    "component/indycar-p15-pos/style/display": "show",
    "component/indycar-p15-pos/style/pos-16x9-x-b": "2",
    "component/indycar-p15-pos/style/pos-16x9-x-e": "3",
    "component/indycar-p15-pos/style/pos-16x9-y-b": "17",
    "component/indycar-p15-pos/style/pos-16x9-y-e": "18",
    "component/indycar-p15-pos/style/text-color": "white",
    "component/indycar-p15-pos/style/text-style": "normal",
    "component/indycar-p15-name/data": "com/indycar/ts-raw/overallRank/15/lastName",
    "component/indycar-p15-name/style/bg": "70-black",
    "component/indycar-p15-name/style/display": "show",
    "component/indycar-p15-name/style/pos-16x9-x-b": "3",
    "component/indycar-p15-name/style/pos-16x9-x-e": "8",
    "component/indycar-p15-name/style/pos-16x9-y-b": "17",
    "component/indycar-p15-name/style/pos-16x9-y-e": "18",
    "component/indycar-p15-name/style/text-align": "left",
    "component/indycar-p15-name/style/text-color": "white",
    "component/indycar-p15-name/style/text-style": "normal",
    "component/indycar-p15-behind-minus/data": "io/github/enzanki-ars/indycar/behind-minus",
    "component/indycar-p15-behind-minus/style/bg": "60-black",
    "component/indycar-p15-behind-minus/style/display": "show",
    "component/indycar-p15-behind-minus/style/pos-16x9-x-b": "8",
    "component/indycar-p15-behind-minus/style/pos-16x9-x-e": "9",
    "component/indycar-p15-behind-minus/style/pos-16x9-y-b": "17",
    "component/indycar-p15-behind-minus/style/pos-16x9-y-e": "18",
    "component/indycar-p15-behind-minus/style/text-color": "white",
    "component/indycar-p15-behind-minus/style/text-style": "normal",
    "component/indycar-p15-time/data": "com/indycar/ts-raw/overallRank/15/behindLeader",
    "component/indycar-p15-time/style/bg": "60-black",
    "component/indycar-p15-time/style/display": "show",
    "component/indycar-p15-time/style/pos-16x9-x-b": "9",
    "component/indycar-p15-time/style/pos-16x9-x-e": "12",
    "component/indycar-p15-time/style/pos-16x9-y-b": "17",
    "component/indycar-p15-time/style/pos-16x9-y-e": "18",
    "component/indycar-p15-time/style/text-color": "white",
    "component/indycar-p15-time/style/text-style": "normal",
    "component/indycar-p16-pos/data": "com/indycar/ts-raw/overallRank/16/overallRank",
    "component/indycar-p16-pos/style/bg": "80-black",
    "component/indycar-p16-pos/style/display": "show",
    "component/indycar-p16-pos/style/pos-16x9-x-b": "2",
    "component/indycar-p16-pos/style/pos-16x9-x-e": "3",
    "component/indycar-p16-pos/style/pos-16x9-y-b": "18",
    "component/indycar-p16-pos/style/pos-16x9-y-e": "19",
    "component/indycar-p16-pos/style/text-color": "white",
    "component/indycar-p16-pos/style/text-style": "normal",
    "component/indycar-p16-name/data": "com/indycar/ts-raw/overallRank/16/lastName",
    "component/indycar-p16-name/style/bg": "70-black",
    "component/indycar-p16-name/style/display": "show",
    "component/indycar-p16-name/style/pos-16x9-x-b": "3",
    "component/indycar-p16-name/style/pos-16x9-x-e": "8",
    "component/indycar-p16-name/style/pos-16x9-y-b": "18",
    "component/indycar-p16-name/style/pos-16x9-y-e": "19",
    "component/indycar-p16-name/style/text-align": "left",
    "component/indycar-p16-name/style/text-color": "white",
    "component/indycar-p16-name/style/text-style": "normal",
    "component/indycar-p16-behind-minus/data": "io/github/enzanki-ars/indycar/behind-minus",
    "component/indycar-p16-behind-minus/style/bg": "60-black",
    "component/indycar-p16-behind-minus/style/display": "show",
    "component/indycar-p16-behind-minus/style/pos-16x9-x-b": "8",
    "component/indycar-p16-behind-minus/style/pos-16x9-x-e": "9",
    "component/indycar-p16-behind-minus/style/pos-16x9-y-b": "18",
    "component/indycar-p16-behind-minus/style/pos-16x9-y-e": "19",
    "component/indycar-p16-behind-minus/style/text-color": "white",
    "component/indycar-p16-behind-minus/style/text-style": "normal",
    "component/indycar-p16-time/data": "com/indycar/ts-raw/overallRank/16/behindLeader",
    "component/indycar-p16-time/style/bg": "60-black",
    "component/indycar-p16-time/style/display": "show",
    "component/indycar-p16-time/style/pos-16x9-x-b": "9",
    "component/indycar-p16-time/style/pos-16x9-x-e": "12",
    "component/indycar-p16-time/style/pos-16x9-y-b": "18",
    "component/indycar-p16-time/style/pos-16x9-y-e": "19",
    "component/indycar-p16-time/style/text-color": "white",
    "component/indycar-p16-time/style/text-style": "normal",
    "component/indycar-p17-pos/data": "com/indycar/ts-raw/overallRank/17/overallRank",
    "component/indycar-p17-pos/style/bg": "80-black",
    "component/indycar-p17-pos/style/display": "show",
    "component/indycar-p17-pos/style/pos-16x9-x-b": "2",
    "component/indycar-p17-pos/style/pos-16x9-x-e": "3",
    "component/indycar-p17-pos/style/pos-16x9-y-b": "19",
    "component/indycar-p17-pos/style/pos-16x9-y-e": "20",
    "component/indycar-p17-pos/style/text-color": "white",
    "component/indycar-p17-pos/style/text-style": "normal",
    "component/indycar-p17-name/data": "com/indycar/ts-raw/overallRank/17/lastName",
    "component/indycar-p17-name/style/bg": "70-black",
    "component/indycar-p17-name/style/display": "show",
    "component/indycar-p17-name/style/pos-16x9-x-b": "3",
    "component/indycar-p17-name/style/pos-16x9-x-e": "8",
    "component/indycar-p17-name/style/pos-16x9-y-b": "19",
    "component/indycar-p17-name/style/pos-16x9-y-e": "20",
    "component/indycar-p17-name/style/text-align": "left",
    "component/indycar-p17-name/style/text-color": "white",
    "component/indycar-p17-name/style/text-style": "normal",
    "component/indycar-p17-behind-minus/data": "io/github/enzanki-ars/indycar/behind-minus",
    "component/indycar-p17-behind-minus/style/bg": "60-black",
    "component/indycar-p17-behind-minus/style/display": "show",
    "component/indycar-p17-behind-minus/style/pos-16x9-x-b": "8",
    "component/indycar-p17-behind-minus/style/pos-16x9-x-e": "9",
    "component/indycar-p17-behind-minus/style/pos-16x9-y-b": "19",
    "component/indycar-p17-behind-minus/style/pos-16x9-y-e": "20",
    "component/indycar-p17-behind-minus/style/text-color": "white",
    "component/indycar-p17-behind-minus/style/text-style": "normal",
    "component/indycar-p17-time/data": "com/indycar/ts-raw/overallRank/17/behindLeader",
    "component/indycar-p17-time/style/bg": "60-black",
    "component/indycar-p17-time/style/display": "show",
    "component/indycar-p17-time/style/pos-16x9-x-b": "9",
    "component/indycar-p17-time/style/pos-16x9-x-e": "12",
    "component/indycar-p17-time/style/pos-16x9-y-b": "19",
    "component/indycar-p17-time/style/pos-16x9-y-e": "20",
    "component/indycar-p17-time/style/text-color": "white",
    "component/indycar-p17-time/style/text-style": "normal",
    "component/indycar-p18-pos/data": "com/indycar/ts-raw/overallRank/18/overallRank",
    "component/indycar-p18-pos/style/bg": "80-black",
    "component/indycar-p18-pos/style/display": "show",
    "component/indycar-p18-pos/style/pos-16x9-x-b": "2",
    "component/indycar-p18-pos/style/pos-16x9-x-e": "3",
    "component/indycar-p18-pos/style/pos-16x9-y-b": "20",
    "component/indycar-p18-pos/style/pos-16x9-y-e": "21",
    "component/indycar-p18-pos/style/text-color": "white",
    "component/indycar-p18-pos/style/text-style": "normal",
    "component/indycar-p18-name/data": "com/indycar/ts-raw/overallRank/18/lastName",
    "component/indycar-p18-name/style/bg": "70-black",
    "component/indycar-p18-name/style/display": "show",
    "component/indycar-p18-name/style/pos-16x9-x-b": "3",
    "component/indycar-p18-name/style/pos-16x9-x-e": "8",
    "component/indycar-p18-name/style/pos-16x9-y-b": "20",
    "component/indycar-p18-name/style/pos-16x9-y-e": "21",
    "component/indycar-p18-name/style/text-align": "left",
    "component/indycar-p18-name/style/text-color": "white",
    "component/indycar-p18-name/style/text-style": "normal",
    "component/indycar-p18-behind-minus/data": "io/github/enzanki-ars/indycar/behind-minus",
    "component/indycar-p18-behind-minus/style/bg": "60-black",
    "component/indycar-p18-behind-minus/style/display": "show",
    "component/indycar-p18-behind-minus/style/pos-16x9-x-b": "8",
    "component/indycar-p18-behind-minus/style/pos-16x9-x-e": "9",
    "component/indycar-p18-behind-minus/style/pos-16x9-y-b": "20",
    "component/indycar-p18-behind-minus/style/pos-16x9-y-e": "21",
    "component/indycar-p18-behind-minus/style/text-color": "white",
    "component/indycar-p18-behind-minus/style/text-style": "normal",
    "component/indycar-p18-time/data": "com/indycar/ts-raw/overallRank/18/behindLeader",
    "component/indycar-p18-time/style/bg": "60-black",
    "component/indycar-p18-time/style/display": "show",
    "component/indycar-p18-time/style/pos-16x9-x-b": "9",
    "component/indycar-p18-time/style/pos-16x9-x-e": "12",
    "component/indycar-p18-time/style/pos-16x9-y-b": "20",
    "component/indycar-p18-time/style/pos-16x9-y-e": "21",
    "component/indycar-p18-time/style/text-color": "white",
    "component/indycar-p18-time/style/text-style": "normal",
    "component/indycar-p19-pos/data": "com/indycar/ts-raw/overallRank/19/overallRank",
    "component/indycar-p19-pos/style/bg": "80-black",
    "component/indycar-p19-pos/style/display": "show",
    "component/indycar-p19-pos/style/pos-16x9-x-b": "2",
    "component/indycar-p19-pos/style/pos-16x9-x-e": "3",
    "component/indycar-p19-pos/style/pos-16x9-y-b": "21",
    "component/indycar-p19-pos/style/pos-16x9-y-e": "22",
    "component/indycar-p19-pos/style/text-color": "white",
    "component/indycar-p19-pos/style/text-style": "normal",
    "component/indycar-p19-name/data": "com/indycar/ts-raw/overallRank/19/lastName",
    "component/indycar-p19-name/style/bg": "70-black",
    "component/indycar-p19-name/style/display": "show",
    "component/indycar-p19-name/style/pos-16x9-x-b": "3",
    "component/indycar-p19-name/style/pos-16x9-x-e": "8",
    "component/indycar-p19-name/style/pos-16x9-y-b": "21",
    "component/indycar-p19-name/style/pos-16x9-y-e": "22",
    "component/indycar-p19-name/style/text-align": "left",
    "component/indycar-p19-name/style/text-color": "white",
    "component/indycar-p19-name/style/text-style": "normal",
    "component/indycar-p19-behind-minus/data": "io/github/enzanki-ars/indycar/behind-minus",
    "component/indycar-p19-behind-minus/style/bg": "60-black",
    "component/indycar-p19-behind-minus/style/display": "show",
    "component/indycar-p19-behind-minus/style/pos-16x9-x-b": "8",
    "component/indycar-p19-behind-minus/style/pos-16x9-x-e": "9",
    "component/indycar-p19-behind-minus/style/pos-16x9-y-b": "21",
    "component/indycar-p19-behind-minus/style/pos-16x9-y-e": "22",
    "component/indycar-p19-behind-minus/style/text-color": "white",
    "component/indycar-p19-behind-minus/style/text-style": "normal",
    "component/indycar-p19-time/data": "com/indycar/ts-raw/overallRank/19/behindLeader",
    "component/indycar-p19-time/style/bg": "60-black",
    "component/indycar-p19-time/style/display": "show",
    "component/indycar-p19-time/style/pos-16x9-x-b": "9",
    "component/indycar-p19-time/style/pos-16x9-x-e": "12",
    "component/indycar-p19-time/style/pos-16x9-y-b": "21",
    "component/indycar-p19-time/style/pos-16x9-y-e": "22",
    "component/indycar-p19-time/style/text-color": "white",
    "component/indycar-p19-time/style/text-style": "normal",
    "component/indycar-p20-pos/data": "com/indycar/ts-raw/overallRank/20/overallRank",
    "component/indycar-p20-pos/style/bg": "80-black",
    "component/indycar-p20-pos/style/display": "show",
    "component/indycar-p20-pos/style/pos-16x9-x-b": "2",
    "component/indycar-p20-pos/style/pos-16x9-x-e": "3",
    "component/indycar-p20-pos/style/pos-16x9-y-b": "22",
    "component/indycar-p20-pos/style/pos-16x9-y-e": "23",
    "component/indycar-p20-pos/style/text-color": "white",
    "component/indycar-p20-pos/style/text-style": "normal",
    "component/indycar-p20-name/data": "com/indycar/ts-raw/overallRank/20/lastName",
    "component/indycar-p20-name/style/bg": "70-black",
    "component/indycar-p20-name/style/display": "show",
    "component/indycar-p20-name/style/pos-16x9-x-b": "3",
    "component/indycar-p20-name/style/pos-16x9-x-e": "8",
    "component/indycar-p20-name/style/pos-16x9-y-b": "22",
    "component/indycar-p20-name/style/pos-16x9-y-e": "23",
    "component/indycar-p20-name/style/text-align": "left",
    "component/indycar-p20-name/style/text-color": "white",
    "component/indycar-p20-name/style/text-style": "normal",
    "component/indycar-p20-behind-minus/data": "io/github/enzanki-ars/indycar/behind-minus",
    "component/indycar-p20-behind-minus/style/bg": "60-black",
    "component/indycar-p20-behind-minus/style/display": "show",
    "component/indycar-p20-behind-minus/style/pos-16x9-x-b": "8",
    "component/indycar-p20-behind-minus/style/pos-16x9-x-e": "9",
    "component/indycar-p20-behind-minus/style/pos-16x9-y-b": "22",
    "component/indycar-p20-behind-minus/style/pos-16x9-y-e": "23",
    "component/indycar-p20-behind-minus/style/text-color": "white",
    "component/indycar-p20-behind-minus/style/text-style": "normal",
    "component/indycar-p20-time/data": "com/indycar/ts-raw/overallRank/20/behindLeader",
    "component/indycar-p20-time/style/bg": "60-black",
    "component/indycar-p20-time/style/display": "show",
    "component/indycar-p20-time/style/pos-16x9-x-b": "9",
    "component/indycar-p20-time/style/pos-16x9-x-e": "12",
    "component/indycar-p20-time/style/pos-16x9-y-b": "22",
    "component/indycar-p20-time/style/pos-16x9-y-e": "23",
    "component/indycar-p20-time/style/text-color": "white",
    "component/indycar-p20-time/style/text-style": "normal",
    "component/indycar-p21-pos/data": "com/indycar/ts-raw/overallRank/21/overallRank",
    "component/indycar-p21-pos/style/bg": "80-black",
    "component/indycar-p21-pos/style/display": "show",
    "component/indycar-p21-pos/style/pos-16x9-x-b": "2",
    "component/indycar-p21-pos/style/pos-16x9-x-e": "3",
    "component/indycar-p21-pos/style/pos-16x9-y-b": "23",
    "component/indycar-p21-pos/style/pos-16x9-y-e": "24",
    "component/indycar-p21-pos/style/text-color": "white",
    "component/indycar-p21-pos/style/text-style": "normal",
    "component/indycar-p21-name/data": "com/indycar/ts-raw/overallRank/21/lastName",
    "component/indycar-p21-name/style/bg": "70-black",
    "component/indycar-p21-name/style/display": "show",
    "component/indycar-p21-name/style/pos-16x9-x-b": "3",
    "component/indycar-p21-name/style/pos-16x9-x-e": "8",
    "component/indycar-p21-name/style/pos-16x9-y-b": "23",
    "component/indycar-p21-name/style/pos-16x9-y-e": "24",
    "component/indycar-p21-name/style/text-align": "left",
    "component/indycar-p21-name/style/text-color": "white",
    "component/indycar-p21-name/style/text-style": "normal",
    "component/indycar-p21-behind-minus/data": "io/github/enzanki-ars/indycar/behind-minus",
    "component/indycar-p21-behind-minus/style/bg": "60-black",
    "component/indycar-p21-behind-minus/style/display": "show",
    "component/indycar-p21-behind-minus/style/pos-16x9-x-b": "8",
    "component/indycar-p21-behind-minus/style/pos-16x9-x-e": "9",
    "component/indycar-p21-behind-minus/style/pos-16x9-y-b": "23",
    "component/indycar-p21-behind-minus/style/pos-16x9-y-e": "24",
    "component/indycar-p21-behind-minus/style/text-color": "white",
    "component/indycar-p21-behind-minus/style/text-style": "normal",
    "component/indycar-p21-time/data": "com/indycar/ts-raw/overallRank/21/behindLeader",
    "component/indycar-p21-time/style/bg": "60-black",
    "component/indycar-p21-time/style/display": "show",
    "component/indycar-p21-time/style/pos-16x9-x-b": "9",
    "component/indycar-p21-time/style/pos-16x9-x-e": "12",
    "component/indycar-p21-time/style/pos-16x9-y-b": "23",
    "component/indycar-p21-time/style/pos-16x9-y-e": "24",
    "component/indycar-p21-time/style/text-color": "white",
    "component/indycar-p21-time/style/text-style": "normal",
    "component/indycar-p22-pos/data": "com/indycar/ts-raw/overallRank/22/overallRank",
    "component/indycar-p22-pos/style/bg": "80-black",
    "component/indycar-p22-pos/style/display": "show",
    "component/indycar-p22-pos/style/pos-16x9-x-b": "2",
    "component/indycar-p22-pos/style/pos-16x9-x-e": "3",
    "component/indycar-p22-pos/style/pos-16x9-y-b": "24",
    "component/indycar-p22-pos/style/pos-16x9-y-e": "25",
    "component/indycar-p22-pos/style/text-color": "white",
    "component/indycar-p22-pos/style/text-style": "normal",
    "component/indycar-p22-name/data": "com/indycar/ts-raw/overallRank/22/lastName",
    "component/indycar-p22-name/style/bg": "70-black",
    "component/indycar-p22-name/style/display": "show",
    "component/indycar-p22-name/style/pos-16x9-x-b": "3",
    "component/indycar-p22-name/style/pos-16x9-x-e": "8",
    "component/indycar-p22-name/style/pos-16x9-y-b": "24",
    "component/indycar-p22-name/style/pos-16x9-y-e": "25",
    "component/indycar-p22-name/style/text-align": "left",
    "component/indycar-p22-name/style/text-color": "white",
    "component/indycar-p22-name/style/text-style": "normal",
    "component/indycar-p22-behind-minus/data": "io/github/enzanki-ars/indycar/behind-minus",
    "component/indycar-p22-behind-minus/style/bg": "60-black",
    "component/indycar-p22-behind-minus/style/display": "show",
    "component/indycar-p22-behind-minus/style/pos-16x9-x-b": "8",
    "component/indycar-p22-behind-minus/style/pos-16x9-x-e": "9",
    "component/indycar-p22-behind-minus/style/pos-16x9-y-b": "24",
    "component/indycar-p22-behind-minus/style/pos-16x9-y-e": "25",
    "component/indycar-p22-behind-minus/style/text-color": "white",
    "component/indycar-p22-behind-minus/style/text-style": "normal",
    "component/indycar-p22-time/data": "com/indycar/ts-raw/overallRank/22/behindLeader",
    "component/indycar-p22-time/style/bg": "60-black",
    "component/indycar-p22-time/style/display": "show",
    "component/indycar-p22-time/style/pos-16x9-x-b": "9",
    "component/indycar-p22-time/style/pos-16x9-x-e": "12",
    "component/indycar-p22-time/style/pos-16x9-y-b": "24",
    "component/indycar-p22-time/style/pos-16x9-y-e": "25",
    "component/indycar-p22-time/style/text-color": "white",
    "component/indycar-p22-time/style/text-style": "normal",
    "component/indycar-p23-pos/data": "com/indycar/ts-raw/overallRank/23/overallRank",
    "component/indycar-p23-pos/style/bg": "80-black",
    "component/indycar-p23-pos/style/display": "show",
    "component/indycar-p23-pos/style/pos-16x9-x-b": "2",
    "component/indycar-p23-pos/style/pos-16x9-x-e": "3",
    "component/indycar-p23-pos/style/pos-16x9-y-b": "25",
    "component/indycar-p23-pos/style/pos-16x9-y-e": "26",
    "component/indycar-p23-pos/style/text-color": "white",
    "component/indycar-p23-pos/style/text-style": "normal",
    "component/indycar-p23-name/data": "com/indycar/ts-raw/overallRank/23/lastName",
    "component/indycar-p23-name/style/bg": "70-black",
    "component/indycar-p23-name/style/display": "show",
    "component/indycar-p23-name/style/pos-16x9-x-b": "3",
    "component/indycar-p23-name/style/pos-16x9-x-e": "8",
    "component/indycar-p23-name/style/pos-16x9-y-b": "25",
    "component/indycar-p23-name/style/pos-16x9-y-e": "26",
    "component/indycar-p23-name/style/text-align": "left",
    "component/indycar-p23-name/style/text-color": "white",
    "component/indycar-p23-name/style/text-style": "normal",
    "component/indycar-p23-behind-minus/data": "io/github/enzanki-ars/indycar/behind-minus",
    "component/indycar-p23-behind-minus/style/bg": "60-black",
    "component/indycar-p23-behind-minus/style/display": "show",
    "component/indycar-p23-behind-minus/style/pos-16x9-x-b": "8",
    "component/indycar-p23-behind-minus/style/pos-16x9-x-e": "9",
    "component/indycar-p23-behind-minus/style/pos-16x9-y-b": "25",
    "component/indycar-p23-behind-minus/style/pos-16x9-y-e": "26",
    "component/indycar-p23-behind-minus/style/text-color": "white",
    "component/indycar-p23-behind-minus/style/text-style": "normal",
    "component/indycar-p23-time/data": "com/indycar/ts-raw/overallRank/23/behindLeader",
    "component/indycar-p23-time/style/bg": "60-black",
    "component/indycar-p23-time/style/display": "show",
    "component/indycar-p23-time/style/pos-16x9-x-b": "9",
    "component/indycar-p23-time/style/pos-16x9-x-e": "12",
    "component/indycar-p23-time/style/pos-16x9-y-b": "25",
    "component/indycar-p23-time/style/pos-16x9-y-e": "26",
    "component/indycar-p23-time/style/text-color": "white",
    "component/indycar-p23-time/style/text-style": "normal",
    "component/indycar-p24-pos/data": "com/indycar/ts-raw/overallRank/24/overallRank",
    "component/indycar-p24-pos/style/bg": "80-black",
    "component/indycar-p24-pos/style/display": "show",
    "component/indycar-p24-pos/style/pos-16x9-x-b": "2",
    "component/indycar-p24-pos/style/pos-16x9-x-e": "3",
    "component/indycar-p24-pos/style/pos-16x9-y-b": "26",
    "component/indycar-p24-pos/style/pos-16x9-y-e": "27",
    "component/indycar-p24-pos/style/text-color": "white",
    "component/indycar-p24-pos/style/text-style": "normal",
    "component/indycar-p24-name/data": "com/indycar/ts-raw/overallRank/24/lastName",
    "component/indycar-p24-name/style/bg": "70-black",
    "component/indycar-p24-name/style/display": "show",
    "component/indycar-p24-name/style/pos-16x9-x-b": "3",
    "component/indycar-p24-name/style/pos-16x9-x-e": "8",
    "component/indycar-p24-name/style/pos-16x9-y-b": "26",
    "component/indycar-p24-name/style/pos-16x9-y-e": "27",
    "component/indycar-p24-name/style/text-align": "left",
    "component/indycar-p24-name/style/text-color": "white",
    "component/indycar-p24-name/style/text-style": "normal",
    "component/indycar-p24-behind-minus/data": "io/github/enzanki-ars/indycar/behind-minus",
    "component/indycar-p24-behind-minus/style/bg": "60-black",
    "component/indycar-p24-behind-minus/style/display": "show",
    "component/indycar-p24-behind-minus/style/pos-16x9-x-b": "8",
    "component/indycar-p24-behind-minus/style/pos-16x9-x-e": "9",
    "component/indycar-p24-behind-minus/style/pos-16x9-y-b": "26",
    "component/indycar-p24-behind-minus/style/pos-16x9-y-e": "27",
    "component/indycar-p24-behind-minus/style/text-color": "white",
    "component/indycar-p24-behind-minus/style/text-style": "normal",
    "component/indycar-p24-time/data": "com/indycar/ts-raw/overallRank/24/behindLeader",
    "component/indycar-p24-time/style/bg": "60-black",
    "component/indycar-p24-time/style/display": "show",
    "component/indycar-p24-time/style/pos-16x9-x-b": "9",
    "component/indycar-p24-time/style/pos-16x9-x-e": "12",
    "component/indycar-p24-time/style/pos-16x9-y-b": "26",
    "component/indycar-p24-time/style/pos-16x9-y-e": "27",
    "component/indycar-p24-time/style/text-color": "white",
    "component/indycar-p24-time/style/text-style": "normal",
    "data/io/github/enzanki-ars/indycar/out-of": "/",
    "data/io/github/enzanki-ars/indycar/behind-minus": "-",
    "overlay/indycar-scoring/components": "indycar-p01-pos,indycar-p01-name,indycar-p02-pos,indycar-p02-name,indycar-p02-behind-minus,indycar-p02-time,indycar-p03-pos,indycar-p03-name,indycar-p03-behind-minus,indycar-p03-time,indycar-p04-pos,indycar-p04-name,indycar-p04-behind-minus,indycar-p04-time,indycar-p05-pos,indycar-p05-name,indycar-p05-behind-minus,indycar-p05-time,indycar-p06-pos,indycar-p06-name,indycar-p06-behind-minus,indycar-p06-time,indycar-p07-pos,indycar-p07-name,indycar-p07-behind-minus,indycar-p07-time,indycar-p08-pos,indycar-p08-name,indycar-p08-behind-minus,indycar-p08-time,indycar-p09-pos,indycar-p09-name,indycar-p09-behind-minus,indycar-p09-time,indycar-p10-pos,indycar-p10-name,indycar-p10-behind-minus,indycar-p10-time,indycar-p11-pos,indycar-p11-name,indycar-p11-behind-minus,indycar-p11-time,indycar-p12-pos,indycar-p12-name,indycar-p12-behind-minus,indycar-p12-time,indycar-p13-pos,indycar-p13-name,indycar-p13-behind-minus,indycar-p13-time,indycar-p14-pos,indycar-p14-name,indycar-p14-behind-minus,indycar-p14-time,indycar-p15-pos,indycar-p15-name,indycar-p15-behind-minus,indycar-p15-time,indycar-p16-pos,indycar-p16-name,indycar-p16-behind-minus,indycar-p16-time,indycar-p17-pos,indycar-p17-name,indycar-p17-behind-minus,indycar-p17-time,indycar-p18-pos,indycar-p18-name,indycar-p18-behind-minus,indycar-p18-time,indycar-p19-pos,indycar-p19-name,indycar-p19-behind-minus,indycar-p19-time,indycar-p20-pos,indycar-p20-name,indycar-p20-behind-minus,indycar-p20-time,indycar-p21-pos,indycar-p21-name,indycar-p21-behind-minus,indycar-p21-time,indycar-p22-pos,indycar-p22-name,indycar-p22-behind-minus,indycar-p22-time,indycar-p23-pos,indycar-p23-name,indycar-p23-behind-minus,indycar-p23-time,indycar-p24-pos,indycar-p24-name,indycar-p24-behind-minus,indycar-p24-time",
    "overlay/indycar-scoring/display": "show",
    "overlay/indycar-status/components": "indycar-flag,indycar-completed-laps,indycar-message",
    "overlay/indycar-status/display": "show",
    "premix/indycar/display": "show",
    "premix/indycar/overlays": "indycar-status,indycar-scoring"
  }
}